new.vcd
$date
	Thu Apr 16 22:41:23 2026
$end
$version
	Icarus Verilog
$end
$timescale
	1ps
$end
$scope module tb_new $end
$var wire 1 ! hlt $end
$var parameter 64 " MEM_SIZE $end
$var parameter 5 # OP_ADD $end
$var parameter 5 $ OP_ADDF $end
$var parameter 5 % OP_ADDI $end
$var parameter 5 & OP_BR $end
$var parameter 5 ' OP_BRNZ $end
$var parameter 5 ( OP_BRR_LIT $end
$var parameter 5 ) OP_CALL $end
$var parameter 5 * OP_MOV_LOAD $end
$var parameter 5 + OP_MOV_STORE $end
$var parameter 5 , OP_PRIV $end
$var parameter 5 - OP_RETURN $end
$var parameter 5 . OP_SUBI $end
$var parameter 65 / RET_SLOT $end
$var reg 1 0 clk $end
$var reg 1 1 reset $end
$var integer 32 2 cycles [31:0] $end
$var integer 32 3 fails [31:0] $end
$var integer 32 4 fd [31:0] $end
$scope function enc_lit $end
$var reg 12 5 lit [11:0] $end
$var reg 5 6 opcode [4:0] $end
$upscope $end
$scope function enc_mov_load $end
$var reg 12 7 lit [11:0] $end
$var reg 5 8 rd [4:0] $end
$var reg 5 9 rs [4:0] $end
$upscope $end
$scope function enc_mov_store $end
$var reg 12 : lit [11:0] $end
$var reg 5 ; rd [4:0] $end
$var reg 5 < rs [4:0] $end
$upscope $end
$scope function enc_r $end
$var reg 5 = opcode [4:0] $end
$var reg 5 > rd [4:0] $end
$upscope $end
$scope function enc_rd_lit $end
$var reg 12 ? lit [11:0] $end
$var reg 5 @ opcode [4:0] $end
$var reg 5 A rd [4:0] $end
$upscope $end
$scope function enc_rr $end
$var reg 5 B opcode [4:0] $end
$var reg 5 C rd [4:0] $end
$var reg 5 D rs [4:0] $end
$upscope $end
$scope function enc_rrr $end
$var reg 5 E opcode [4:0] $end
$var reg 5 F rd [4:0] $end
$var reg 5 G rs [4:0] $end
$var reg 5 H rt [4:0] $end
$upscope $end
$scope function read_mem64 $end
$var reg 64 I addr [63:0] $end
$upscope $end
$scope module dut $end
$var wire 1 0 clk $end
$var wire 1 1 reset $end
$var wire 64 J sp_data [63:0] $end
$var wire 5 K rt_idx [4:0] $end
$var wire 64 L rt_data [63:0] $end
$var wire 5 M rs_idx [4:0] $end
$var wire 64 N rs_data [63:0] $end
$var wire 5 O rd_idx [4:0] $end
$var wire 64 P rd_data [63:0] $end
$var wire 64 Q pc [63:0] $end
$var wire 5 R opcode [4:0] $end
$var wire 64 S lit_zext [63:0] $end
$var wire 64 T lit_sext [63:0] $end
$var wire 12 U lit12 [11:0] $end
$var wire 32 V instruction [31:0] $end
$var wire 64 W data_read_data [63:0] $end
$var wire 64 X alu_result [63:0] $end
$var wire 1 Y alu_a_is_zero $end
$var wire 1 Z alu_a_gt_b_signed $end
$var parameter 6 [ ALU_ADD $end
$var parameter 6 \ ALU_AND $end
$var parameter 6 ] ALU_DIV $end
$var parameter 6 ^ ALU_FADD $end
$var parameter 6 _ ALU_FDIV $end
$var parameter 6 ` ALU_FMUL $end
$var parameter 6 a ALU_FSUB $end
$var parameter 6 b ALU_MUL $end
$var parameter 6 c ALU_NOT $end
$var parameter 6 d ALU_OR $end
$var parameter 6 e ALU_PASS_A $end
$var parameter 6 f ALU_PASS_B $end
$var parameter 6 g ALU_SHL $end
$var parameter 6 h ALU_SHR $end
$var parameter 6 i ALU_SUB $end
$var parameter 6 j ALU_XOR $end
$var parameter 64 k MEM_SIZE $end
$var parameter 5 l OP_ADD $end
$var parameter 5 m OP_ADDF $end
$var parameter 5 n OP_ADDI $end
$var parameter 5 o OP_AND $end
$var parameter 5 p OP_BR $end
$var parameter 5 q OP_BRGT $end
$var parameter 5 r OP_BRNZ $end
$var parameter 5 s OP_BRR_LIT $end
$var parameter 5 t OP_BRR_REG $end
$var parameter 5 u OP_CALL $end
$var parameter 5 v OP_DIV $end
$var parameter 5 w OP_DIVF $end
$var parameter 5 x OP_MOV_LIT $end
$var parameter 5 y OP_MOV_LOAD $end
$var parameter 5 z OP_MOV_REG $end
$var parameter 5 { OP_MOV_STORE $end
$var parameter 5 | OP_MUL $end
$var parameter 5 } OP_MULF $end
$var parameter 5 ~ OP_NOT $end
$var parameter 5 !" OP_OR $end
$var parameter 5 "" OP_PRIV $end
$var parameter 5 #" OP_RETURN $end
$var parameter 5 $" OP_SHFTL $end
$var parameter 5 %" OP_SHFTLI $end
$var parameter 5 &" OP_SHFTR $end
$var parameter 5 '" OP_SHFTRI $end
$var parameter 5 (" OP_SUB $end
$var parameter 5 )" OP_SUBF $end
$var parameter 5 *" OP_SUBI $end
$var parameter 5 +" OP_XOR $end
$var parameter 4 ," S_ADDR $end
$var parameter 4 -" S_BRANCH $end
$var parameter 4 ." S_CALL $end
$var parameter 4 /" S_DECODE $end
$var parameter 4 0" S_EXEC_ALU $end
$var parameter 4 1" S_FETCH $end
$var parameter 4 2" S_HALT $end
$var parameter 4 3" S_MEM_READ $end
$var parameter 4 4" S_MEM_WRITE $end
$var parameter 4 5" S_RETURN $end
$var parameter 4 6" S_WB_ALU $end
$var parameter 4 7" S_WB_MEM $end
$var reg 64 8" ALUOut [63:0] $end
$var reg 64 9" MDR [63:0] $end
$var reg 64 :" alu_a [63:0] $end
$var reg 64 ;" alu_b [63:0] $end
$var reg 6 <" alu_op [5:0] $end
$var reg 64 =" data_addr [63:0] $end
$var reg 64 >" data_write_data [63:0] $end
$var reg 1 ?" data_write_en $end
$var reg 1 ! hlt $end
$var reg 32 @" ir [31:0] $end
$var reg 64 A" ir_pc [63:0] $end
$var reg 4 B" next_state [3:0] $end
$var reg 64 C" pc_next [63:0] $end
$var reg 1 D" pc_write $end
$var reg 64 E" rd_latch [63:0] $end
$var reg 5 F" rf_write_addr [4:0] $end
$var reg 64 G" rf_write_data [63:0] $end
$var reg 1 H" rf_write_en $end
$var reg 64 I" rs_latch [63:0] $end
$var reg 64 J" rt_latch [63:0] $end
$var reg 4 K" state [3:0] $end
$scope module alu_fpu $end
$var wire 64 L" a [63:0] $end
$var wire 64 M" b [63:0] $end
$var wire 6 N" op [5:0] $end
$var wire 1 Y a_is_zero $end
$var wire 1 Z a_gt_b_signed $end
$var parameter 6 O" ALU_ADD $end
$var parameter 6 P" ALU_AND $end
$var parameter 6 Q" ALU_DIV $end
$var parameter 6 R" ALU_FADD $end
$var parameter 6 S" ALU_FDIV $end
$var parameter 6 T" ALU_FMUL $end
$var parameter 6 U" ALU_FSUB $end
$var parameter 6 V" ALU_MUL $end
$var parameter 6 W" ALU_NOT $end
$var parameter 6 X" ALU_OR $end
$var parameter 6 Y" ALU_PASS_A $end
$var parameter 6 Z" ALU_PASS_B $end
$var parameter 6 [" ALU_SHL $end
$var parameter 6 \" ALU_SHR $end
$var parameter 6 ]" ALU_SUB $end
$var parameter 6 ^" ALU_XOR $end
$var parameter 64 _" QUIET_NAN $end
$var reg 64 `" result [63:0] $end
$scope function fp_addsub64 $end
$upscope $end
$scope function fp_div64 $end
$upscope $end
$scope function fp_mul64 $end
$upscope $end
$scope function is_inf64 $end
$upscope $end
$scope function is_nan64 $end
$upscope $end
$scope function is_zero64 $end
$upscope $end
$scope function pack $end
$upscope $end
$scope function shr_sticky56 $end
$upscope $end
$upscope $end
$scope module decoder $end
$var wire 32 a" instruction [31:0] $end
$var wire 5 b" rt_idx [4:0] $end
$var wire 5 c" rs_idx [4:0] $end
$var wire 5 d" rd_idx [4:0] $end
$var wire 5 e" opcode [4:0] $end
$var wire 64 f" lit_zext [63:0] $end
$var wire 64 g" lit_sext [63:0] $end
$var wire 12 h" lit12 [11:0] $end
$upscope $end
$scope module fetch $end
$var wire 1 0 clk $end
$var wire 64 i" pc_next [63:0] $end
$var wire 1 D" pc_write $end
$var wire 1 1 reset $end
$var reg 64 j" pc [63:0] $end
$upscope $end
$scope module memory $end
$var wire 1 0 clk $end
$var wire 64 k" data_addr [63:0] $end
$var wire 64 l" data_write_data [63:0] $end
$var wire 1 ?" data_write_en $end
$var wire 64 m" inst_addr [63:0] $end
$var wire 32 n" inst_word [31:0] $end
$var wire 32 o" inst_idx [31:0] $end
$var wire 64 p" data_read_data [63:0] $end
$var wire 32 q" data_idx [31:0] $end
$var parameter 64 r" MEM_SIZE $end
$upscope $end
$scope module reg_file $end
$var wire 1 0 clk $end
$var wire 5 s" read_addr_a [4:0] $end
$var wire 5 t" read_addr_b [4:0] $end
$var wire 5 u" read_addr_c [4:0] $end
$var wire 64 v" read_data_a [63:0] $end
$var wire 64 w" read_data_b [63:0] $end
$var wire 64 x" read_data_c [63:0] $end
$var wire 1 1 reset $end
$var wire 64 y" sp_data [63:0] $end
$var wire 5 z" write_addr [4:0] $end
$var wire 64 {" write_data [63:0] $end
$var wire 1 H" write_en $end
$var parameter 64 |" MEM_SIZE $end
$var integer 32 }" i [31:0] $end
$upscope $end
$upscope $end
$scope task clear_program_region $end
$var integer 32 ~" j [31:0] $end
$upscope $end
$scope task do_reset $end
$upscope $end
$scope task expect64 $end
$var reg 64 !# exp [63:0] $end
$var reg 64 "# got [63:0] $end
$var reg 256 ## name [255:0] $end
$upscope $end
$scope task expect_true $end
$var reg 1 $# cond $end
$var reg 256 %# name [255:0] $end
$upscope $end
$scope task run_until_halt $end
$var integer 32 &# max_cycles [31:0] $end
$upscope $end
$scope task write_inst $end
$var reg 64 '# addr [63:0] $end
$var reg 32 (# inst [31:0] $end
$upscope $end
$scope task write_mem64 $end
$var reg 64 )# addr [63:0] $end
$var reg 64 *# data [63:0] $end
$upscope $end
$upscope $end
$enddefinitions $end
$comment Show the parameter values. $end
$dumpall
b10000000000000000000 |"
b10000000000000000000 r"
b111111111111000000000000000000000000000000000000000000000000000 _"
b100 ^"
b1001 ]"
b110 \"
b111 ["
b1 Z"
b0 Y"
b11 X"
b101 W"
b1010 V"
b1101 U"
b1110 T"
b1111 S"
b1100 R"
b1011 Q"
b10 P"
b1000 O"
b110 7"
b11 6"
b1010 5"
b111 4"
b101 3"
b1011 2"
b0 1"
b10 0"
b1 /"
b1001 ."
b1000 -"
b100 ,"
b10 +"
b11011 *"
b10101 )"
b11010 ("
b101 '"
b100 &"
b111 %"
b110 $"
b1101 #"
b1111 ""
b1 !"
b11 ~
b10110 }
b11100 |
b10011 {
b10001 z
b10000 y
b10010 x
b10111 w
b11101 v
b1100 u
b1001 t
b1010 s
b1011 r
b1110 q
b1000 p
b0 o
b11001 n
b10100 m
b11000 l
b10000000000000000000 k
b100 j
b1001 i
b110 h
b111 g
b1 f
b0 e
b11 d
b101 c
b1010 b
b1101 a
b1110 `
b1111 _
b1100 ^
b1011 ]
b10 \
b1000 [
b1111111111111111000 /
b11011 .
b1101 -
b1111 ,
b10011 +
b10000 *
b1100 )
b1010 (
b1011 '
b1000 &
b11001 %
b10100 $
b11000 #
b10000000000000000000 "
$end
#0
$dumpvars
bx *#
bx )#
bx (#
bx '#
bx &#
bx %#
x$#
bx ##
bx "#
bx !#
b10000010000000 ~"
bx }"
b0 {"
bx z"
bx y"
bx x"
bx w"
bx v"
bx u"
bx t"
bx s"
b0 q"
bx p"
bx o"
bx n"
bx m"
b0 l"
b0 k"
bx j"
bx i"
bx h"
bx g"
b0xxxxxxxxxxxx f"
bx e"
bx d"
bx c"
bx b"
bx a"
b0 `"
b0 N"
b0 M"
b0 L"
bx K"
bx J"
bx I"
0H"
b0 G"
bx F"
bx E"
0D"
bx C"
b0 B"
bx A"
bx @"
0?"
b0 >"
b0 ="
b0 <"
b0 ;"
b0 :"
bx 9"
bx 8"
0Z
1Y
b0 X
bx W
bx V
bx U
bx T
b0xxxxxxxxxxxx S
bx R
bx Q
bx P
bx O
bx N
bx M
bx L
bx K
bx J
bx I
bx H
bx G
bx F
bx E
bx D
bx C
bx B
bx A
bx @
bx ?
bx >
bx =
bx <
bx ;
bx :
bx 9
bx 8
bx 7
bx 6
bx 5
b10000000000000000000000000000011 4
b0 3
b0 2
11
00
x!
$end
#5000
b0 V
b0 n"
b0 F"
b0 z"
b10000000000000 o"
b0 R
b0 e"
b0 P
b0 v"
b0 O
b0 d"
b0 s"
b0 N
b0 w"
b0 M
b0 c"
b0 t"
b0 L
b0 x"
b0 K
b0 b"
b0 u"
b0 U
b0 h"
b0 S
b0 f"
b0 T
b0 g"
b1 B"
1D"
b10000000000100 C"
b10000000000100 i"
0!
b10000000000000 Q
b10000000000000 j"
b10000000000000 m"
b10000000000000000000 J
b10000000000000000000 y"
b0 9"
b0 8"
b0 J"
b0 I"
b0 E"
b0 A"
b0 @"
b0 a"
b0 K"
b11111 }"
10
#10000
00
#15000
b11111 }"
10
#16000
01
#17000
b1111000000000000000000000000000 V
b1111000000000000000000000000000 n"
11
b1111000000000000000000000000000 (#
b10000000000000 '#
b10000010000000 ~"
1$#
b1110010011001010111001101100101011101000010000001101000011011000111010000100000011011000110111101110111 %#
b0 !#
b0 "#
b111001001100101011100110110010101110100001000000111001000110000 ##
#20000
00
#25000
b11111 }"
10
#30000
00
#35000
b11111 }"
10
#36000
01
#37000
b10100 &#
#40000
00
#45000
b0 V
b0 n"
b10000000000100 o"
b1111 R
b1111 e"
b1011 B"
0D"
b10000000000100 Q
b10000000000100 j"
b10000000000100 m"
b10000000000000 A"
b1111000000000000000000000000000 @"
b1111000000000000000000000000000 a"
b1 K"
b1 2
10
#50000
00
#55000
1!
b1011 K"
b10 2
10
#60000
00
#65000
b11 2
10
#66000
b11001000100000000000000000000111 V
b11001000100000000000000000000111 n"
11
b11000 E
b11 F
b1 G
b10 H
b10000000010000 '#
b1111000000000000000000000000000 (#
b11011 @
b11 A
b10 ?
b10000010000000 ~"
b11010000110000101101100011101000010000001101101011101010110110001110100011010010110001101111001011000110110110001100101 %#
#70000
00
#75000
b11001000010000000000000000000101 V
b11001000010000000000000000000101 n"
b0 R
b0 e"
b10000000000000 o"
1D"
b10000000000100 C"
b10000000000100 i"
b1 B"
0!
b0 A"
b0 @"
b0 a"
b0 K"
b10000000000000 Q
b10000000000000 j"
b10000000000000 m"
b11111 }"
10
#80000
00
#85000
b11111 }"
10
#86000
01
#87000
b0 2
b1010000 &#
#90000
00
#95000
b1 F"
b1 z"
b11001000100000000000000000000111 V
b11001000100000000000000000000111 n"
b11001 R
b11001 e"
b1 O
b1 d"
b1 s"
b101 U
b101 h"
b101 S
b101 f"
b101 T
b101 g"
b10000000000100 o"
b10 B"
0D"
b10000000000000 A"
b11001000010000000000000000000101 @"
b11001000010000000000000000000101 a"
b1 K"
b10000000000100 Q
b10000000000100 j"
b10000000000100 m"
b1 2
10
#100000
00
#105000
b101 X
b101 `"
b11 B"
b101 ;"
b101 M"
b1000 <"
b1000 N"
b10 K"
b10 2
10
#110000
00
#115000
b0 X
b0 `"
b0 B"
b101 G"
b101 {"
1H"
b0 ;"
b0 M"
b0 <"
b0 N"
b101 8"
b11 K"
b11 2
10
#120000
00
#125000
b1 B"
b10000000001000 C"
b10000000001000 i"
1D"
b0 G"
b0 {"
0H"
b101 P
b101 v"
b0 K"
b100 2
10
#130000
00
#135000
b10 F"
b10 z"
b11000000110000100010000000000000 V
b11000000110000100010000000000000 n"
b0 P
b0 v"
b10 O
b10 d"
b10 s"
b111 U
b111 h"
b111 S
b111 f"
b111 T
b111 g"
b10000000001000 o"
b10 B"
0D"
b10000000000100 A"
b11001000100000000000000000000111 @"
b11001000100000000000000000000111 a"
b1 K"
b10000000001000 Q
b10000000001000 j"
b10000000001000 m"
b101 2
10
#140000
00
#145000
b111 X
b111 `"
b11 B"
b111 ;"
b111 M"
b1000 <"
b1000 N"
b10 K"
b110 2
10
#150000
00
#155000
b0 X
b0 `"
b0 B"
b111 G"
b111 {"
1H"
b0 ;"
b0 M"
b0 <"
b0 N"
b111 8"
b11 K"
b111 2
10
#160000
00
#165000
b1 B"
b10000000001100 C"
b10000000001100 i"
1D"
b0 G"
b0 {"
0H"
b111 P
b111 v"
b0 K"
b1000 2
10
#170000
00
#175000
b11 F"
b11 z"
b11011000110000000000000000000010 V
b11011000110000000000000000000010 n"
b11000 R
b11000 e"
b0 P
b0 v"
b11 O
b11 d"
b11 s"
b101 N
b101 w"
b1 M
b1 c"
b1 t"
b111 L
b111 x"
b10 K
b10 b"
b10 u"
b0 U
b0 h"
b0 S
b0 f"
b0 T
b0 g"
b10000000001100 o"
b10 B"
0D"
b10000000001000 A"
b11000000110000100010000000000000 @"
b11000000110000100010000000000000 a"
b1 K"
b10000000001100 Q
b10000000001100 j"
b10000000001100 m"
b1001 2
10
#180000
00
#185000
b1100 X
b1100 `"
b11 B"
b111 ;"
b111 M"
0Y
0Z
b101 :"
b101 L"
b1000 <"
b1000 N"
b111 J"
b101 I"
b10 K"
b1010 2
10
#190000
00
#195000
b0 X
b0 `"
b0 B"
b1100 G"
b1100 {"
1H"
b0 ;"
b0 M"
1Y
b0 :"
b0 L"
b0 <"
b0 N"
b1100 8"
b11 K"
b1011 2
10
#200000
00
#205000
b1 B"
b10000000010000 C"
b10000000010000 i"
1D"
b0 G"
b0 {"
0H"
b1100 P
b1100 v"
b0 K"
b1100 2
10
#210000
00
#215000
b1111000000000000000000000000000 V
b1111000000000000000000000000000 n"
b11011 R
b11011 e"
b0 N
b0 w"
b0 M
b0 c"
b0 t"
b0 L
b0 x"
b0 K
b0 b"
b0 u"
b10 U
b10 h"
b10 S
b10 f"
b10 T
b10 g"
b10000000010000 o"
b10 B"
0D"
b10000000001100 A"
b11011000110000000000000000000010 @"
b11011000110000000000000000000010 a"
b1 K"
b10000000010000 Q
b10000000010000 j"
b10000000010000 m"
b1101 2
10
#220000
00
#225000
b1010 X
b1010 `"
b11 B"
b10 ;"
b10 M"
0Y
1Z
b1100 :"
b1100 L"
b1001 <"
b1001 N"
b0 J"
b0 I"
b1100 E"
b10 K"
b1110 2
10
#230000
00
#235000
b0 X
b0 `"
b0 B"
b1010 G"
b1010 {"
1H"
b0 ;"
b0 M"
1Y
0Z
b0 :"
b0 L"
b0 <"
b0 N"
b1010 8"
b11 K"
b1111 2
10
#240000
00
#245000
b1 B"
b10000000010100 C"
b10000000010100 i"
1D"
b0 G"
b0 {"
0H"
b1010 P
b1010 v"
b0 K"
b10000 2
10
#250000
00
#255000
b0 F"
b0 z"
b0 V
b0 n"
b1111 R
b1111 e"
b0 P
b0 v"
b0 O
b0 d"
b0 s"
b0 U
b0 h"
b0 S
b0 f"
b0 T
b0 g"
b10000000010100 o"
b1011 B"
0D"
b10000000010000 A"
b1111000000000000000000000000000 @"
b1111000000000000000000000000000 a"
b1 K"
b10000000010100 Q
b10000000010100 j"
b10000000010100 m"
b10001 2
10
#260000
00
#265000
1!
b0 E"
b1011 K"
b10010 2
10
#270000
00
#275000
b10011 2
10
#276000
11
b11 8
b1 9
b0 7
b1 ;
b10 <
b0 :
b1111000000000000000000000000000 (#
b11001 @
b10 A
b101010 ?
b10000000010000 '#
b10000010000000 ~"
b1010 !#
b1010 "#
b1100001011011000111010100100000011100100110010101110011011101010110110001110100001000000111001000110011 ##
b110000101101100011101010010000001101101011101010110110001110100011010010110001101111001011000110110110001100101 %#
#280000
00
#285000
b11001000010000000000000100000000 V
b11001000010000000000000100000000 n"
b10000000000000 o"
b0 R
b0 e"
1D"
b10000000000100 C"
b10000000000100 i"
b1 B"
0!
b10000000000000 Q
b10000000000000 j"
b10000000000000 m"
b0 8"
b0 A"
b0 @"
b0 a"
b0 K"
b11111 }"
10
#290000
00
#295000
b11111 }"
10
#296000
01
#297000
b0 2
b1100100 &#
#300000
00
#305000
b11001000100000000000000000101010 V
b11001000100000000000000000101010 n"
b1 F"
b1 z"
b10000000000100 o"
b11001 R
b11001 e"
b1 O
b1 d"
b1 s"
b100000000 U
b100000000 h"
b100000000 S
b100000000 f"
b100000000 T
b100000000 g"
b10 B"
0D"
b10000000000100 Q
b10000000000100 j"
b10000000000100 m"
b10000000000000 A"
b11001000010000000000000100000000 @"
b11001000010000000000000100000000 a"
b1 K"
b1 2
10
#310000
00
#315000
b100000000 X
b100000000 `"
b11 B"
b100000000 ;"
b100000000 M"
b1000 <"
b1000 N"
b10 K"
b10 2
10
#320000
00
#325000
b0 X
b0 `"
b0 B"
b100000000 G"
b100000000 {"
1H"
b0 ;"
b0 M"
b0 <"
b0 N"
b100000000 8"
b11 K"
b11 2
10
#330000
00
#335000
b1 B"
b10000000001000 C"
b10000000001000 i"
1D"
b0 G"
b0 {"
0H"
b0 K"
b100000000 P
b100000000 v"
b100 2
10
#340000
00
#345000
b10011000010001000000000000000000 V
b10011000010001000000000000000000 n"
b10 F"
b10 z"
b10000000001000 o"
b0 P
b0 v"
b10 O
b10 d"
b10 s"
b101010 U
b101010 h"
b101010 S
b101010 f"
b101010 T
b101010 g"
b10 B"
0D"
b10000000001000 Q
b10000000001000 j"
b10000000001000 m"
b10000000000100 A"
b11001000100000000000000000101010 @"
b11001000100000000000000000101010 a"
b1 K"
b101 2
10
#350000
00
#355000
b101010 X
b101010 `"
b11 B"
b101010 ;"
b101010 M"
b1000 <"
b1000 N"
b10 K"
b110 2
10
#360000
00
#365000
b0 X
b0 `"
b0 B"
b101010 G"
b101010 {"
1H"
b0 ;"
b0 M"
b0 <"
b0 N"
b101010 8"
b11 K"
b111 2
10
#370000
00
#375000
b1 B"
b10000000001100 C"
b10000000001100 i"
1D"
b0 G"
b0 {"
0H"
b0 K"
b101010 P
b101010 v"
b1000 2
10
#380000
00
#385000
b10000000110000100000000000000000 V
b10000000110000100000000000000000 n"
b1 F"
b1 z"
b10000000001100 o"
b10011 R
b10011 e"
b100000000 P
b100000000 v"
b1 O
b1 d"
b1 s"
b101010 N
b101010 w"
b10 M
b10 c"
b10 t"
b0 U
b0 h"
b0 S
b0 f"
b0 T
b0 g"
b100 B"
0D"
b10000000001100 Q
b10000000001100 j"
b10000000001100 m"
b10000000001000 A"
b10011000010001000000000000000000 @"
b10011000010001000000000000000000 a"
b1 K"
b1001 2
10
#390000
00
#395000
b100000000 X
b100000000 `"
b111 B"
0Y
1Z
b100000000 :"
b100000000 L"
b1000 <"
b1000 N"
b101010 I"
b100000000 E"
b100 K"
b1010 2
10
#400000
00
#405000
b100000000 q"
b0 X
b0 `"
b0 B"
b101010 >"
b101010 l"
1?"
b100000000 ="
b100000000 k"
1Y
0Z
b0 :"
b0 L"
b0 <"
b0 N"
b100000000 8"
b111 K"
b1011 2
10
#410000
00
#415000
b0 q"
b1 B"
b10000000010000 C"
b10000000010000 i"
1D"
b0 >"
b0 l"
b0 ="
b0 k"
0?"
bx W
bx p"
b0 K"
b1100 2
10
#420000
00
#425000
b1111000000000000000000000000000 V
b1111000000000000000000000000000 n"
b11 F"
b11 z"
b10000000010000 o"
b10000 R
b10000 e"
b0 P
b0 v"
b11 O
b11 d"
b11 s"
b100000000 N
b100000000 w"
b1 M
b1 c"
b1 t"
b100 B"
0D"
b10000000010000 Q
b10000000010000 j"
b10000000010000 m"
b10000000001100 A"
b10000000110000100000000000000000 @"
b10000000110000100000000000000000 a"
b1 K"
b1101 2
10
#430000
00
#435000
b100000000 X
b100000000 `"
b101 B"
0Y
1Z
b100000000 :"
b100000000 L"
b1000 <"
b1000 N"
b100000000 I"
b0 E"
b100 K"
b1110 2
10
#440000
00
#445000
b101010 W
b101010 p"
b100000000 q"
b0 X
b0 `"
b110 B"
b100000000 ="
b100000000 k"
1Y
0Z
b0 :"
b0 L"
b0 <"
b0 N"
b101 K"
b1111 2
10
#450000
00
#455000
bx W
bx p"
b0 q"
b0 B"
b101010 G"
b101010 {"
1H"
b0 ="
b0 k"
b101010 9"
b110 K"
b10000 2
10
#460000
00
#465000
b1 B"
b10000000010100 C"
b10000000010100 i"
1D"
b0 G"
b0 {"
0H"
b101010 P
b101010 v"
b0 K"
b10001 2
10
#470000
00
#475000
b0 F"
b0 z"
b0 V
b0 n"
b1111 R
b1111 e"
b0 P
b0 v"
b0 O
b0 d"
b0 s"
b0 N
b0 w"
b0 M
b0 c"
b0 t"
b10000000010100 o"
b1011 B"
0D"
b10000000010000 A"
b1111000000000000000000000000000 @"
b1111000000000000000000000000000 a"
b1 K"
b10000000010100 Q
b10000000010100 j"
b10000000010100 m"
b10010 2
10
#480000
00
#485000
1!
b0 I"
b1011 K"
b10011 2
10
#490000
00
#495000
b10100 2
10
#496000
b1111000000000000000000000000000 V
b1111000000000000000000000000000 n"
11
b110 A
b1001 ?
b1111000000000000000000000000000 (#
b1011 B
b100 C
b101 D
b10000000010100 '#
b10000010000000 ~"
b101010 !#
b101010 "#
b100000000 I
b110110001101111011000010110010000100000011100100110010101110011011101010110110001110100001000000111001000110011 ##
#500000
00
#505000
b1011001000010100000000000000000 V
b1011001000010100000000000000000 n"
b10000000000000 o"
b0 R
b0 e"
1D"
b10000000000100 C"
b10000000000100 i"
b1 B"
0!
b10000000000000 Q
b10000000000000 j"
b10000000000000 m"
b0 9"
b0 8"
b0 A"
b0 @"
b0 a"
b0 K"
b11111 }"
10
#510000
00
#515000
b11111 }"
10
#516000
01
#517000
b0 2
b1010000 &#
#520000
00
#525000
b11001001100000000000000000000001 V
b11001001100000000000000000000001 n"
b100 F"
b100 z"
b10000000000100 o"
b1011 R
b1011 e"
b10000000010000 P
b10000000010000 v"
b100 O
b100 d"
b100 s"
b1 N
b1 w"
b101 M
b101 c"
b101 t"
b1000 B"
0D"
b10000000000100 Q
b10000000000100 j"
b10000000000100 m"
b10000000000000 A"
b1011001000010100000000000000000 @"
b1011001000010100000000000000000 a"
b1 K"
b1 2
10
#530000
00
#535000
b0 B"
b10000000010000 C"
b10000000010000 i"
1D"
b1 I"
b10000000010000 E"
b1000 K"
b10 2
10
#540000
00
#545000
b11001001100000000000000000001001 V
b11001001100000000000000000001001 n"
b10000000010000 o"
b1 B"
b10000000010100 C"
b10000000010100 i"
1D"
b10000000010000 Q
b10000000010000 j"
b10000000010000 m"
b0 K"
b11 2
10
#550000
00
#555000
b110 F"
b110 z"
b1111000000000000000000000000000 V
b1111000000000000000000000000000 n"
b11001 R
b11001 e"
b0 P
b0 v"
b110 O
b110 d"
b110 s"
b0 N
b0 w"
b0 M
b0 c"
b0 t"
b1001 U
b1001 h"
b1001 S
b1001 f"
b1001 T
b1001 g"
b10000000010100 o"
b10 B"
0D"
b10000000010000 A"
b11001001100000000000000000001001 @"
b11001001100000000000000000001001 a"
b1 K"
b10000000010100 Q
b10000000010100 j"
b10000000010100 m"
b100 2
10
#560000
00
#565000
b1001 X
b1001 `"
b11 B"
b1001 ;"
b1001 M"
b1000 <"
b1000 N"
b0 I"
b0 E"
b10 K"
b101 2
10
#570000
00
#575000
b0 X
b0 `"
b0 B"
b1001 G"
b1001 {"
1H"
b0 ;"
b0 M"
b0 <"
b0 N"
b1001 8"
b11 K"
b110 2
10
#580000
00
#585000
b1 B"
b10000000011000 C"
b10000000011000 i"
1D"
b0 G"
b0 {"
0H"
b1001 P
b1001 v"
b0 K"
b111 2
10
#590000
00
#595000
b0 F"
b0 z"
b0 V
b0 n"
b1111 R
b1111 e"
b0 P
b0 v"
b0 O
b0 d"
b0 s"
b0 U
b0 h"
b0 S
b0 f"
b0 T
b0 g"
b10000000011000 o"
b1011 B"
0D"
b10000000010100 A"
b1111000000000000000000000000000 @"
b1111000000000000000000000000000 a"
b1 K"
b10000000011000 Q
b10000000011000 j"
b10000000011000 m"
b1000 2
10
#600000
00
#605000
1!
b1011 K"
b1001 2
10
#610000
00
#615000
b1010 2
10
#616000
11
b111 A
b1001 ?
b1111000000000000000000000000000 (#
b1010 6
b1000 5
b10000000001100 '#
b10000010000000 ~"
b1001 !#
b1001 "#
b11000100111001001101110011110100010000001110100011000010111001001100111011001010111010000100000011100100110010101110011011101010110110001110100 ##
#620000
00
#625000
b1010000000000000000000000001000 V
b1010000000000000000000000001000 n"
b10000000000000 o"
b0 R
b0 e"
1D"
b10000000000100 C"
b10000000000100 i"
b1 B"
0!
b10000000000000 Q
b10000000000000 j"
b10000000000000 m"
b0 8"
b0 A"
b0 @"
b0 a"
b0 K"
b11111 }"
10
#630000
00
#635000
b11111 }"
10
#636000
01
#637000
b0 2
#640000
00
#645000
b11001001110000000000000000000001 V
b11001001110000000000000000000001 n"
b10000000000100 o"
b1010 R
b1010 e"
b1000 U
b1000 h"
b1000 S
b1000 f"
b1000 T
b1000 g"
b1000 B"
0D"
b10000000000100 Q
b10000000000100 j"
b10000000000100 m"
b10000000000000 A"
b1010000000000000000000000001000 @"
b1010000000000000000000000001000 a"
b1 K"
b1 2
10
#650000
00
#655000
b0 B"
b10000000001000 C"
b10000000001000 i"
1D"
b1000 K"
b10 2
10
#660000
00
#665000
b11001001110000000000000000001001 V
b11001001110000000000000000001001 n"
b10000000001000 o"
b1 B"
b10000000001100 C"
b10000000001100 i"
1D"
b10000000001000 Q
b10000000001000 j"
b10000000001000 m"
b0 K"
b11 2
10
#670000
00
#675000
b111 F"
b111 z"
b1111000000000000000000000000000 V
b1111000000000000000000000000000 n"
b11001 R
b11001 e"
b111 O
b111 d"
b111 s"
b1001 U
b1001 h"
b1001 S
b1001 f"
b1001 T
b1001 g"
b10000000001100 o"
b10 B"
0D"
b10000000001000 A"
b11001001110000000000000000001001 @"
b11001001110000000000000000001001 a"
b1 K"
b10000000001100 Q
b10000000001100 j"
b10000000001100 m"
b100 2
10
#680000
00
#685000
b1001 X
b1001 `"
b11 B"
b1001 ;"
b1001 M"
b1000 <"
b1000 N"
b10 K"
b101 2
10
#690000
00
#695000
b0 X
b0 `"
b0 B"
b1001 G"
b1001 {"
1H"
b0 ;"
b0 M"
b0 <"
b0 N"
b1001 8"
b11 K"
b110 2
10
#700000
00
#705000
b1 B"
b10000000010000 C"
b10000000010000 i"
1D"
b0 G"
b0 {"
0H"
b1001 P
b1001 v"
b0 K"
b111 2
10
#710000
00
