sim/comprehensive.vcd
$date
	Thu Apr 16 12:49:15 2026
$end
$version
	Icarus Verilog
$end
$timescale
	1ps
$end
$scope module tb_comprehensive $end
$var wire 1 ! hlt $end
$var parameter 64 " MEM_SIZE $end
$var parameter 5 # OP_ADDI $end
$var parameter 5 $ OP_AND $end
$var parameter 5 % OP_BRNZ $end
$var parameter 5 & OP_BRR_LIT $end
$var parameter 5 ' OP_CALL $end
$var parameter 5 ( OP_MOV_LIT $end
$var parameter 5 ) OP_MOV_LOAD $end
$var parameter 5 * OP_MOV_STORE $end
$var parameter 5 + OP_PRIV $end
$var parameter 5 , OP_RETURN $end
$var parameter 5 - OP_SUBI $end
$var parameter 65 . RET_SLOT $end
$var reg 1 / clk $end
$var reg 1 0 reset $end
$var integer 32 1 cycles [31:0] $end
$var integer 32 2 fails [31:0] $end
$scope function enc_lit $end
$var reg 12 3 lit [11:0] $end
$var reg 5 4 opcode [4:0] $end
$upscope $end
$scope function enc_mov_load $end
$var reg 12 5 lit [11:0] $end
$var reg 5 6 rd [4:0] $end
$var reg 5 7 rs [4:0] $end
$upscope $end
$scope function enc_mov_store $end
$var reg 12 8 lit [11:0] $end
$var reg 5 9 rd [4:0] $end
$var reg 5 : rs [4:0] $end
$upscope $end
$scope function enc_r $end
$var reg 5 ; opcode [4:0] $end
$var reg 5 < rd [4:0] $end
$upscope $end
$scope function enc_rd_lit $end
$var reg 12 = lit [11:0] $end
$var reg 5 > opcode [4:0] $end
$var reg 5 ? rd [4:0] $end
$upscope $end
$scope function enc_rr $end
$var reg 5 @ opcode [4:0] $end
$var reg 5 A rd [4:0] $end
$var reg 5 B rs [4:0] $end
$upscope $end
$scope function enc_rrr $end
$var reg 5 C opcode [4:0] $end
$var reg 5 D rd [4:0] $end
$var reg 5 E rs [4:0] $end
$var reg 5 F rt [4:0] $end
$upscope $end
$scope function read_mem64 $end
$var reg 64 G addr [63:0] $end
$upscope $end
$scope module dut $end
$var wire 1 / clk $end
$var wire 1 0 reset $end
$var wire 64 H unused_sp_data [63:0] $end
$var wire 64 I unused_read_c [63:0] $end
$var wire 64 J unused_read_b [63:0] $end
$var wire 64 K unused_read_a [63:0] $end
$var wire 32 L unused_inst_word [31:0] $end
$var wire 64 M unused_data_word [63:0] $end
$var wire 64 N fpu1_pipe_result [63:0] $end
$var wire 64 O fpu0_pipe_result [63:0] $end
$var wire 1 P alu1_pipe_zero $end
$var wire 64 Q alu1_pipe_result [63:0] $end
$var wire 1 R alu1_pipe_gt $end
$var wire 1 S alu0_pipe_zero $end
$var wire 64 T alu0_pipe_result [63:0] $end
$var wire 1 U alu0_pipe_gt $end
$var parameter 6 V ALU_ADD $end
$var parameter 6 W ALU_AND $end
$var parameter 6 X ALU_DIV $end
$var parameter 6 Y ALU_FADD $end
$var parameter 6 Z ALU_FDIV $end
$var parameter 6 [ ALU_FMUL $end
$var parameter 6 \ ALU_FSUB $end
$var parameter 6 ] ALU_MUL $end
$var parameter 6 ^ ALU_NOT $end
$var parameter 6 _ ALU_OR $end
$var parameter 6 ` ALU_PASS_A $end
$var parameter 6 a ALU_PASS_B $end
$var parameter 6 b ALU_SHL $end
$var parameter 6 c ALU_SHR $end
$var parameter 6 d ALU_SUB $end
$var parameter 6 e ALU_XOR $end
$var parameter 32 f ARCH_REGS $end
$var parameter 32 g BHT_SIZE $end
$var parameter 33 h FREE_COUNT_MAX $end
$var parameter 32 i LSQ_SIZE $end
$var parameter 64 j MEM_SIZE $end
$var parameter 5 k OP_ADD $end
$var parameter 5 l OP_ADDF $end
$var parameter 5 m OP_ADDI $end
$var parameter 5 n OP_AND $end
$var parameter 5 o OP_BR $end
$var parameter 5 p OP_BRGT $end
$var parameter 5 q OP_BRNZ $end
$var parameter 5 r OP_BRR_LIT $end
$var parameter 5 s OP_BRR_REG $end
$var parameter 5 t OP_CALL $end
$var parameter 5 u OP_DIV $end
$var parameter 5 v OP_DIVF $end
$var parameter 5 w OP_MOV_LIT $end
$var parameter 5 x OP_MOV_LOAD $end
$var parameter 5 y OP_MOV_REG $end
$var parameter 5 z OP_MOV_STORE $end
$var parameter 5 { OP_MUL $end
$var parameter 5 | OP_MULF $end
$var parameter 5 } OP_NOT $end
$var parameter 5 ~ OP_OR $end
$var parameter 5 !" OP_PRIV $end
$var parameter 5 "" OP_RETURN $end
$var parameter 5 #" OP_SHFTL $end
$var parameter 5 $" OP_SHFTLI $end
$var parameter 5 %" OP_SHFTR $end
$var parameter 5 &" OP_SHFTRI $end
$var parameter 5 '" OP_SUB $end
$var parameter 5 (" OP_SUBF $end
$var parameter 5 )" OP_SUBI $end
$var parameter 5 *" OP_XOR $end
$var parameter 32 +" PHYS_REGS $end
$var parameter 32 ," ROB_SIZE $end
$var parameter 32 -" RS_SIZE $end
$var reg 64 ." alu0_pipe_a [63:0] $end
$var reg 64 /" alu0_pipe_b [63:0] $end
$var reg 6 0" alu0_pipe_op [5:0] $end
$var reg 64 1" alu0_s0_a [63:0] $end
$var reg 64 2" alu0_s0_b [63:0] $end
$var reg 64 3" alu0_s0_c [63:0] $end
$var reg 6 4" alu0_s0_dest_phys [5:0] $end
$var reg 1 5" alu0_s0_has_dest $end
$var reg 1 6" alu0_s0_is_branch $end
$var reg 5 7" alu0_s0_opcode [4:0] $end
$var reg 64 8" alu0_s0_pc [63:0] $end
$var reg 1 9" alu0_s0_pred_taken $end
$var reg 64 :" alu0_s0_pred_target [63:0] $end
$var reg 4 ;" alu0_s0_rob_idx [3:0] $end
$var reg 1 <" alu0_s0_valid $end
$var reg 64 =" alu0_s1_a [63:0] $end
$var reg 64 >" alu0_s1_b [63:0] $end
$var reg 64 ?" alu0_s1_c [63:0] $end
$var reg 6 @" alu0_s1_dest_phys [5:0] $end
$var reg 1 A" alu0_s1_has_dest $end
$var reg 1 B" alu0_s1_is_branch $end
$var reg 5 C" alu0_s1_opcode [4:0] $end
$var reg 64 D" alu0_s1_pc [63:0] $end
$var reg 1 E" alu0_s1_pred_taken $end
$var reg 64 F" alu0_s1_pred_target [63:0] $end
$var reg 64 G" alu0_s1_result [63:0] $end
$var reg 4 H" alu0_s1_rob_idx [3:0] $end
$var reg 1 I" alu0_s1_valid $end
$var reg 64 J" alu1_pipe_a [63:0] $end
$var reg 64 K" alu1_pipe_b [63:0] $end
$var reg 6 L" alu1_pipe_op [5:0] $end
$var reg 64 M" alu1_s0_a [63:0] $end
$var reg 64 N" alu1_s0_b [63:0] $end
$var reg 64 O" alu1_s0_c [63:0] $end
$var reg 6 P" alu1_s0_dest_phys [5:0] $end
$var reg 1 Q" alu1_s0_has_dest $end
$var reg 1 R" alu1_s0_is_branch $end
$var reg 5 S" alu1_s0_opcode [4:0] $end
$var reg 64 T" alu1_s0_pc [63:0] $end
$var reg 1 U" alu1_s0_pred_taken $end
$var reg 64 V" alu1_s0_pred_target [63:0] $end
$var reg 4 W" alu1_s0_rob_idx [3:0] $end
$var reg 1 X" alu1_s0_valid $end
$var reg 64 Y" alu1_s1_a [63:0] $end
$var reg 64 Z" alu1_s1_b [63:0] $end
$var reg 64 [" alu1_s1_c [63:0] $end
$var reg 6 \" alu1_s1_dest_phys [5:0] $end
$var reg 1 ]" alu1_s1_has_dest $end
$var reg 1 ^" alu1_s1_is_branch $end
$var reg 5 _" alu1_s1_opcode [4:0] $end
$var reg 64 `" alu1_s1_pc [63:0] $end
$var reg 1 a" alu1_s1_pred_taken $end
$var reg 64 b" alu1_s1_pred_target [63:0] $end
$var reg 64 c" alu1_s1_result [63:0] $end
$var reg 4 d" alu1_s1_rob_idx [3:0] $end
$var reg 1 e" alu1_s1_valid $end
$var reg 1 f" branch_taken $end
$var reg 64 g" branch_target [63:0] $end
$var reg 1 h" checkpoint_valid $end
$var reg 64 i" correct_pc [63:0] $end
$var reg 64 j" fetch_pc_next [63:0] $end
$var reg 1 k" fetch_stop $end
$var reg 1 l" forward_blocked $end
$var reg 1 m" forward_found $end
$var reg 64 n" forwarded_value [63:0] $end
$var reg 64 o" fpu0_pipe_a [63:0] $end
$var reg 64 p" fpu0_pipe_b [63:0] $end
$var reg 6 q" fpu0_pipe_op [5:0] $end
$var reg 64 r" fpu0_s0_a [63:0] $end
$var reg 64 s" fpu0_s0_b [63:0] $end
$var reg 6 t" fpu0_s0_dest_phys [5:0] $end
$var reg 1 u" fpu0_s0_has_dest $end
$var reg 5 v" fpu0_s0_opcode [4:0] $end
$var reg 4 w" fpu0_s0_rob_idx [3:0] $end
$var reg 1 x" fpu0_s0_valid $end
$var reg 6 y" fpu0_s1_dest_phys [5:0] $end
$var reg 1 z" fpu0_s1_has_dest $end
$var reg 64 {" fpu0_s1_result [63:0] $end
$var reg 4 |" fpu0_s1_rob_idx [3:0] $end
$var reg 1 }" fpu0_s1_valid $end
$var reg 6 ~" fpu0_s2_dest_phys [5:0] $end
$var reg 1 !# fpu0_s2_has_dest $end
$var reg 64 "# fpu0_s2_result [63:0] $end
$var reg 4 ## fpu0_s2_rob_idx [3:0] $end
$var reg 1 $# fpu0_s2_valid $end
$var reg 6 %# fpu0_s3_dest_phys [5:0] $end
$var reg 1 &# fpu0_s3_has_dest $end
$var reg 64 '# fpu0_s3_result [63:0] $end
$var reg 4 (# fpu0_s3_rob_idx [3:0] $end
$var reg 1 )# fpu0_s3_valid $end
$var reg 64 *# fpu1_pipe_a [63:0] $end
$var reg 64 +# fpu1_pipe_b [63:0] $end
$var reg 6 ,# fpu1_pipe_op [5:0] $end
$var reg 64 -# fpu1_s0_a [63:0] $end
$var reg 64 .# fpu1_s0_b [63:0] $end
$var reg 6 /# fpu1_s0_dest_phys [5:0] $end
$var reg 1 0# fpu1_s0_has_dest $end
$var reg 5 1# fpu1_s0_opcode [4:0] $end
$var reg 4 2# fpu1_s0_rob_idx [3:0] $end
$var reg 1 3# fpu1_s0_valid $end
$var reg 6 4# fpu1_s1_dest_phys [5:0] $end
$var reg 1 5# fpu1_s1_has_dest $end
$var reg 64 6# fpu1_s1_result [63:0] $end
$var reg 4 7# fpu1_s1_rob_idx [3:0] $end
$var reg 1 8# fpu1_s1_valid $end
$var reg 6 9# fpu1_s2_dest_phys [5:0] $end
$var reg 1 :# fpu1_s2_has_dest $end
$var reg 64 ;# fpu1_s2_result [63:0] $end
$var reg 4 <# fpu1_s2_rob_idx [3:0] $end
$var reg 1 =# fpu1_s2_valid $end
$var reg 6 ># fpu1_s3_dest_phys [5:0] $end
$var reg 1 ?# fpu1_s3_has_dest $end
$var reg 64 @# fpu1_s3_result [63:0] $end
$var reg 4 A# fpu1_s3_rob_idx [3:0] $end
$var reg 1 B# fpu1_s3_valid $end
$var reg 1 C# halt_inflight $end
$var reg 1 ! hlt $end
$var reg 64 D# lsu0_s0_addr [63:0] $end
$var reg 64 E# lsu0_s0_base [63:0] $end
$var reg 64 F# lsu0_s0_imm [63:0] $end
$var reg 1 G# lsu0_s0_is_addr $end
$var reg 3 H# lsu0_s0_lsq_idx [2:0] $end
$var reg 4 I# lsu0_s0_rob_idx [3:0] $end
$var reg 1 J# lsu0_s0_valid $end
$var reg 64 K# lsu0_s1_addr [63:0] $end
$var reg 1 L# lsu0_s1_is_addr $end
$var reg 3 M# lsu0_s1_lsq_idx [2:0] $end
$var reg 64 N# lsu0_s1_result [63:0] $end
$var reg 4 O# lsu0_s1_rob_idx [3:0] $end
$var reg 1 P# lsu0_s1_valid $end
$var reg 64 Q# lsu1_s0_addr [63:0] $end
$var reg 64 R# lsu1_s0_base [63:0] $end
$var reg 64 S# lsu1_s0_imm [63:0] $end
$var reg 1 T# lsu1_s0_is_addr $end
$var reg 3 U# lsu1_s0_lsq_idx [2:0] $end
$var reg 4 V# lsu1_s0_rob_idx [3:0] $end
$var reg 1 W# lsu1_s0_valid $end
$var reg 64 X# lsu1_s1_addr [63:0] $end
$var reg 1 Y# lsu1_s1_is_addr $end
$var reg 3 Z# lsu1_s1_lsq_idx [2:0] $end
$var reg 64 [# lsu1_s1_result [63:0] $end
$var reg 4 \# lsu1_s1_rob_idx [3:0] $end
$var reg 1 ]# lsu1_s1_valid $end
$var reg 1 ^# mispredict $end
$var reg 1 _# need_dest_phys $end
$var reg 6 `# new_dest_phys [5:0] $end
$var reg 6 a# old_dest_phys [5:0] $end
$var reg 32 b# slot_inst [31:0] $end
$var reg 12 c# slot_lit12 [11:0] $end
$var reg 64 d# slot_lit_sext [63:0] $end
$var reg 64 e# slot_lit_zext [63:0] $end
$var reg 5 f# slot_opcode [4:0] $end
$var reg 1 g# slot_pred_taken $end
$var reg 64 h# slot_pred_target [63:0] $end
$var reg 5 i# slot_rd [4:0] $end
$var reg 5 j# slot_rs [4:0] $end
$var reg 5 k# slot_rt [4:0] $end
$var reg 6 l# src_tag [5:0] $end
$var reg 6 m# src_tag1 [5:0] $end
$var reg 6 n# src_tag2 [5:0] $end
$var reg 64 o# src_val [63:0] $end
$var reg 64 p# src_val1 [63:0] $end
$var reg 64 q# src_val2 [63:0] $end
$var reg 1 r# src_wait $end
$var reg 1 s# src_wait1 $end
$var reg 1 t# src_wait2 $end
$var integer 32 u# addr_idx [31:0] $end
$var integer 32 v# alu_pick0 [31:0] $end
$var integer 32 w# alu_pick1 [31:0] $end
$var integer 32 x# checkpoint_free_count [31:0] $end
$var integer 32 y# checkpoint_rob_idx [31:0] $end
$var integer 32 z# fetch_bht_idx [31:0] $end
$var integer 32 {# fpu_pick0 [31:0] $end
$var integer 32 |# fpu_pick1 [31:0] $end
$var integer 32 }# free_count [31:0] $end
$var integer 32 ~# i [31:0] $end
$var integer 32 !$ k [31:0] $end
$var integer 32 "$ load_best_store [31:0] $end
$var integer 32 #$ ls_pick0 [31:0] $end
$var integer 32 $$ ls_pick1 [31:0] $end
$var integer 32 %$ lsq_idx [31:0] $end
$var integer 32 &$ rob_count [31:0] $end
$var integer 32 '$ rob_head [31:0] $end
$var integer 32 ($ rob_idx [31:0] $end
$var integer 32 )$ rob_tail [31:0] $end
$var integer 32 *$ rs_idx [31:0] $end
$var integer 32 +$ slot [31:0] $end
$scope function alu_sel_for_opcode $end
$upscope $end
$scope function bht_idx $end
$upscope $end
$scope function fpu_sel_for_opcode $end
$upscope $end
$scope function has_dest_opcode $end
$upscope $end
$scope function is_branch_opcode $end
$upscope $end
$scope function is_fpu_opcode $end
$upscope $end
$scope function is_halt_opcode $end
$upscope $end
$scope function is_load_opcode $end
$upscope $end
$scope function is_store_opcode $end
$upscope $end
$scope function read_inst32 $end
$upscope $end
$scope function read_mem64_direct $end
$upscope $end
$scope function rob_distance $end
$upscope $end
$scope function rob_inc $end
$upscope $end
$scope function rob_younger_than $end
$upscope $end
$scope function signext12 $end
$upscope $end
$scope module alu0 $end
$var wire 64 ,$ a [63:0] $end
$var wire 64 -$ b [63:0] $end
$var wire 6 .$ op [5:0] $end
$var wire 1 S a_is_zero $end
$var wire 1 U a_gt_b_signed $end
$var parameter 6 /$ ALU_ADD $end
$var parameter 6 0$ ALU_AND $end
$var parameter 6 1$ ALU_DIV $end
$var parameter 6 2$ ALU_MUL $end
$var parameter 6 3$ ALU_NOT $end
$var parameter 6 4$ ALU_OR $end
$var parameter 6 5$ ALU_PASS_A $end
$var parameter 6 6$ ALU_PASS_B $end
$var parameter 6 7$ ALU_SHL $end
$var parameter 6 8$ ALU_SHR $end
$var parameter 6 9$ ALU_SUB $end
$var parameter 6 :$ ALU_XOR $end
$var reg 64 ;$ result [63:0] $end
$upscope $end
$scope module alu1 $end
$var wire 64 <$ a [63:0] $end
$var wire 64 =$ b [63:0] $end
$var wire 6 >$ op [5:0] $end
$var wire 1 P a_is_zero $end
$var wire 1 R a_gt_b_signed $end
$var parameter 6 ?$ ALU_ADD $end
$var parameter 6 @$ ALU_AND $end
$var parameter 6 A$ ALU_DIV $end
$var parameter 6 B$ ALU_MUL $end
$var parameter 6 C$ ALU_NOT $end
$var parameter 6 D$ ALU_OR $end
$var parameter 6 E$ ALU_PASS_A $end
$var parameter 6 F$ ALU_PASS_B $end
$var parameter 6 G$ ALU_SHL $end
$var parameter 6 H$ ALU_SHR $end
$var parameter 6 I$ ALU_SUB $end
$var parameter 6 J$ ALU_XOR $end
$var reg 64 K$ result [63:0] $end
$upscope $end
$scope module fetch $end
$var wire 1 / clk $end
$var wire 64 L$ pc_next [63:0] $end
$var wire 1 M$ pc_write $end
$var wire 1 0 reset $end
$var reg 64 N$ pc [63:0] $end
$upscope $end
$scope module fpu $end
$var wire 64 O$ a [63:0] $end
$var wire 64 P$ b [63:0] $end
$var wire 6 Q$ op [5:0] $end
$var parameter 6 R$ ALU_FADD $end
$var parameter 6 S$ ALU_FDIV $end
$var parameter 6 T$ ALU_FMUL $end
$var parameter 6 U$ ALU_FSUB $end
$var parameter 64 V$ QUIET_NAN $end
$var reg 64 W$ result [63:0] $end
$scope function fp_addsub64 $end
$upscope $end
$scope function fp_div64 $end
$upscope $end
$scope function fp_mul64 $end
$upscope $end
$scope function is_inf64 $end
$upscope $end
$scope function is_nan64 $end
$upscope $end
$scope function is_zero64 $end
$upscope $end
$scope function pack $end
$upscope $end
$scope function shr_sticky56 $end
$upscope $end
$upscope $end
$scope module fpu1 $end
$var wire 64 X$ a [63:0] $end
$var wire 64 Y$ b [63:0] $end
$var wire 6 Z$ op [5:0] $end
$var parameter 6 [$ ALU_FADD $end
$var parameter 6 \$ ALU_FDIV $end
$var parameter 6 ]$ ALU_FMUL $end
$var parameter 6 ^$ ALU_FSUB $end
$var parameter 64 _$ QUIET_NAN $end
$var reg 64 `$ result [63:0] $end
$scope function fp_addsub64 $end
$upscope $end
$scope function fp_div64 $end
$upscope $end
$scope function fp_mul64 $end
$upscope $end
$scope function is_inf64 $end
$upscope $end
$scope function is_nan64 $end
$upscope $end
$scope function is_zero64 $end
$upscope $end
$scope function pack $end
$upscope $end
$scope function shr_sticky56 $end
$upscope $end
$upscope $end
$scope module memory $end
$var wire 1 / clk $end
$var wire 64 a$ data_addr [63:0] $end
$var wire 64 b$ data_write_data [63:0] $end
$var wire 1 c$ data_write_en $end
$var wire 64 d$ inst_addr [63:0] $end
$var wire 32 e$ inst_word [31:0] $end
$var wire 32 f$ inst_idx [31:0] $end
$var wire 64 g$ data_read_data [63:0] $end
$var wire 32 h$ data_idx [31:0] $end
$var parameter 64 i$ MEM_SIZE $end
$upscope $end
$scope module reg_file $end
$var wire 1 / clk $end
$var wire 5 j$ read_addr_a [4:0] $end
$var wire 5 k$ read_addr_b [4:0] $end
$var wire 5 l$ read_addr_c [4:0] $end
$var wire 64 m$ read_data_a [63:0] $end
$var wire 64 n$ read_data_b [63:0] $end
$var wire 64 o$ read_data_c [63:0] $end
$var wire 1 0 reset $end
$var wire 64 p$ sp_data [63:0] $end
$var wire 5 q$ write_addr [4:0] $end
$var wire 64 r$ write_data [63:0] $end
$var wire 1 s$ write_en $end
$var parameter 64 t$ MEM_SIZE $end
$var integer 32 u$ i [31:0] $end
$upscope $end
$scope task capture_operand $end
$upscope $end
$scope task capture_operand_from_phys $end
$upscope $end
$scope task finish_result $end
$upscope $end
$scope task predict_instruction $end
$upscope $end
$scope task scan_store_forward $end
$upscope $end
$scope task wakeup_tag $end
$upscope $end
$upscope $end
$scope task clear_program $end
$var integer 32 v$ i [31:0] $end
$upscope $end
$scope task do_reset $end
$upscope $end
$scope task expect64 $end
$var reg 64 w$ exp [63:0] $end
$var reg 64 x$ got [63:0] $end
$var reg 256 y$ name [255:0] $end
$upscope $end
$scope task expect_true $end
$var reg 1 z$ cond $end
$var reg 256 {$ name [255:0] $end
$upscope $end
$scope task run_until_halt $end
$var integer 32 |$ max_cycles [31:0] $end
$upscope $end
$scope task write_inst $end
$var reg 64 }$ addr [63:0] $end
$var reg 32 ~$ inst [31:0] $end
$upscope $end
$scope task write_mem64 $end
$var reg 64 !% addr [63:0] $end
$var reg 64 "% data [63:0] $end
$upscope $end
$upscope $end
$enddefinitions $end
$comment Show the parameter values. $end
$dumpall
b10000000000000000000 t$
b10000000000000000000 i$
b111111111111000000000000000000000000000000000000000000000000000 _$
b1101 ^$
b1110 ]$
b1111 \$
b1100 [$
b111111111111000000000000000000000000000000000000000000000000000 V$
b1101 U$
b1110 T$
b1111 S$
b1100 R$
b100 J$
b1001 I$
b110 H$
b111 G$
b1 F$
b0 E$
b11 D$
b101 C$
b1010 B$
b1011 A$
b10 @$
b1000 ?$
b100 :$
b1001 9$
b110 8$
b111 7$
b1 6$
b0 5$
b11 4$
b101 3$
b1010 2$
b1011 1$
b10 0$
b1000 /$
b1100 -"
b10000 ,"
b1000000 +"
b10 *"
b11011 )"
b10101 ("
b11010 '"
b101 &"
b100 %"
b111 $"
b110 #"
b1101 ""
b1111 !"
b1 ~
b11 }
b10110 |
b11100 {
b10011 z
b10001 y
b10000 x
b10010 w
b10111 v
b11101 u
b1100 t
b1001 s
b1010 r
b1011 q
b1110 p
b1000 o
b0 n
b11001 m
b10100 l
b11000 k
b10000000000000000000 j
b1000 i
b100000 h
b100000000 g
b100000 f
b100 e
b1001 d
b110 c
b111 b
b1 a
b0 `
b11 _
b101 ^
b1010 ]
b1101 \
b1110 [
b1111 Z
b1100 Y
b1011 X
b10 W
b1000 V
b1111111111111111000 .
b11011 -
b1101 ,
b1111 +
b10011 *
b10000 )
b10010 (
b1100 '
b1010 &
b1011 %
b0 $
b11001 #
b10000000000000000000 "
$end
#0
$dumpvars
bx "%
bx !%
b1111000000000000000000000000000 ~$
b10000000010000 }$
bx |$
bx {$
xz$
bx y$
bx x$
bx w$
b10000010000000 v$
bx u$
0s$
b0 r$
b0 q$
bx p$
bx o$
bx n$
bx m$
b0 l$
b0 k$
b0 j$
b0 h$
bx g$
b0 f$
bx e$
b0 d$
0c$
b0 b$
b0 a$
bx `$
bx Z$
bx Y$
bx X$
bx W$
bx Q$
bx P$
bx O$
b10000000000000 N$
0M$
b0 L$
bx K$
bx >$
bx =$
bx <$
bx ;$
bx .$
bx -$
bx ,$
bx +$
bx *$
bx )$
bx ($
bx '$
bx &$
bx %$
bx $$
bx #$
bx "$
bx !$
bx ~#
bx }#
bx |#
bx {#
bx z#
bx y#
bx x#
bx w#
bx v#
bx u#
xt#
xs#
xr#
bx q#
bx p#
bx o#
bx n#
bx m#
bx l#
bx k#
bx j#
bx i#
bx h#
xg#
bx f#
bx e#
bx d#
bx c#
bx b#
bx a#
bx `#
x_#
x^#
x]#
bx \#
bx [#
bx Z#
xY#
bx X#
xW#
bx V#
bx U#
xT#
bx S#
bx R#
bx Q#
xP#
bx O#
bx N#
bx M#
xL#
bx K#
xJ#
bx I#
bx H#
xG#
bx F#
bx E#
bx D#
xC#
xB#
bx A#
bx @#
x?#
bx >#
x=#
bx <#
bx ;#
x:#
bx 9#
x8#
bx 7#
bx 6#
x5#
bx 4#
x3#
bx 2#
bx 1#
x0#
bx /#
bx .#
bx -#
bx ,#
bx +#
bx *#
x)#
bx (#
bx '#
x&#
bx %#
x$#
bx ##
bx "#
x!#
bx ~"
x}"
bx |"
bx {"
xz"
bx y"
xx"
bx w"
bx v"
xu"
bx t"
bx s"
bx r"
bx q"
bx p"
bx o"
bx n"
xm"
xl"
xk"
bx j"
bx i"
xh"
bx g"
xf"
xe"
bx d"
bx c"
bx b"
xa"
bx `"
bx _"
x^"
x]"
bx \"
bx ["
bx Z"
bx Y"
xX"
bx W"
bx V"
xU"
bx T"
bx S"
xR"
xQ"
bx P"
bx O"
bx N"
bx M"
bx L"
bx K"
bx J"
xI"
bx H"
bx G"
bx F"
xE"
bx D"
bx C"
xB"
xA"
bx @"
bx ?"
bx >"
bx ="
x<"
bx ;"
bx :"
x9"
bx 8"
bx 7"
x6"
x5"
bx 4"
bx 3"
bx 2"
bx 1"
bx 0"
bx /"
bx ."
xU
bx T
xS
xR
bx Q
xP
bx O
bx N
bx M
bx L
bx K
bx J
bx I
bx H
bx G
b10 F
b1 E
b100 D
b0 C
bx B
bx A
bx @
b10 ?
b11011 >
b10 =
bx <
bx ;
bx :
bx 9
bx 8
bx 7
bx 6
bx 5
bx 4
bx 3
b0 2
b0 1
10
0/
x!
$end
#5000
b10000000000000000000 H
b10000000000000000000 p$
b0 K
b0 m$
b0 J
b0 n$
b0 I
b0 o$
0!
b11111 u$
b100000000 ~#
0]#
0P#
0W#
0J#
0B#
0)#
0=#
0$#
08#
0}"
03#
0x"
0e"
0I"
0X"
0<"
b100000 x#
b100000 }#
b0 y#
0h"
b0 &$
b0 )$
b0 '$
1/
#10000
0/
#15000
b100000000 ~#
b11111 u$
1/
#16000
00
#17000
b1010000 |$
#20000
0/
#25000
b10000000001000 N$
b0 o#
b10 l#
0r#
b10 a#
b11110 }#
b111110 `#
b10 &$
b10 )$
b1 ($
b1 *$
1_#
b10000000001000 h#
0g#
b111 d#
b111 e#
b111 c#
b0 k#
b0 j#
b10 i#
b11001 f#
b11001000100000000000000000000111 b#
b10 +$
0C#
0k"
b10000000001000 j"
b1100 ~#
b11111111111111111111111111111111 $$
b11111111111111111111111111111111 #$
b11111111111111111111111111111111 |#
b11111111111111111111111111111111 {#
b11111111111111111111111111111111 w#
b11111111111111111111111111111111 v#
b0 [#
b0 N#
b0 n"
0l"
0m"
b11111111111111111111111111111111 "$
b10000000000000 i"
0^#
b1 1
1/
#30000
0/
#35000
b111 Q
b111 K$
b101 T
b101 ;$
b1100 ,#
b1100 Z$
b1100 q"
b1100 Q$
b1000 L"
b1000 >$
0R
b111 K"
b111 =$
1P
b0 J"
b0 <$
b1000 0"
b1000 .$
0U
b101 /"
b101 -$
1S
b0 ."
b0 ,$
b10000000010000 N$
b10000000010000 j"
b0 p#
b111110 m#
1s#
b111110 l#
1r#
b111110 a#
b11100 }#
b111100 `#
b100 &$
b100 )$
b11 ($
b1 *$
b10000000010000 h#
b10 d#
b10 e#
b10 c#
b0 k#
b0 j#
b10 i#
b11011 f#
b11011000100000000000000000000010 b#
b10 +$
b10000000001000 V"
0U"
b1 W"
b111110 P"
1Q"
0R"
b10000000000100 T"
b0 O"
b111 N"
b0 M"
b11001 S"
1X"
b10000000000100 :"
09"
b0 ;"
b111111 4"
15"
06"
b10000000000000 8"
b0 3"
b101 2"
b0 1"
b11001 7"
1<"
b1 w#
b0 v#
b1100 ~#
b10 1
b10000000001000 i"
1/
#40000
0/
#45000
b10000000010100 N$
1k"
b10000000010100 j"
b101 &$
b101 )$
b100 ($
b10 *$
0_#
b10000000010100 h#
b0 d#
b0 e#
b0 c#
b0 i#
b1111 f#
b1111000000000000000000000000000 b#
b10 +$
b1100 ~#
b11111111111111111111111111111111 w#
b11111111111111111111111111111111 v#
0X"
0<"
b11 1
b111 c"
b10000000001000 b"
0a"
b1 d"
b111110 \"
1]"
0^"
b10000000000100 `"
b0 ["
b111 Z"
b0 Y"
b11001 _"
1e"
b101 G"
b10000000000100 F"
0E"
b0 H"
b111111 @"
1A"
0B"
b10000000000000 D"
b0 ?"
b101 >"
b0 ="
b11001 C"
1I"
b10000000010000 i"
1/
#50000
0/
#55000
b101 Q
b101 K$
b1001 L"
b1001 >$
1R
b10 K"
b10 =$
0P
b111 J"
b111 <$
b10 0"
b10 .$
b111 /"
b111 -$
0S
b101 ."
b101 ,$
b10 +$
1C#
1k"
b10000000010000 V"
b11 W"
b111100 P"
b10000000001100 T"
b10 N"
b111 M"
b11011 S"
1X"
b10000000001100 :"
b10 ;"
b111101 4"
b10000000001000 8"
b111 2"
b101 1"
b0 7"
1<"
b1 w#
b0 v#
b10000 ~#
0e"
0I"
b100 &$
b1 '$
b1000 !$
b100 1
b10000000010100 i"
1/
#60000
0/
#65000
b10 +$
1C#
1k"
b10000 ~#
b11111111111111111111111111111111 w#
b11111111111111111111111111111111 v#
0X"
0<"
b101 1
b101 c"
b10000000010000 b"
b11 d"
b111100 \"
b10000000001100 `"
b10 Z"
b111 Y"
b11011 _"
1e"
b10000000001100 F"
b10 H"
b111101 @"
b10000000001000 D"
b111 >"
b101 ="
b0 C"
1I"
b11 &$
b10 '$
1/
#70000
0/
#75000
b10 +$
1C#
1k"
b10000 ~#
0e"
0I"
b10 &$
b11 '$
b1000 !$
b110 1
1/
#80000
0/
#85000
b10 +$
1C#
1k"
b10000 ~#
b111 1
b1 &$
b100 '$
b11101 }#
1/
#90000
0/
#95000
1!
b10000000011100 N$
b111011 m#
b111011 l#
b10000000011100 j"
b111110 a#
b11011 }#
b111011 `#
b111 )$
b110 ($
b1 *$
1_#
b10000000011100 h#
b0 f#
b0 b#
b10 +$
0C#
0k"
b1100 ~#
b1000 1
b10 &$
b101 '$
1/
#100000
0/
#105000
b1001 1
1/
#106000
10
b1111000000000000000000000000000 ~$
b10010 >
b101 ?
b100100011 =
b10000000001000 }$
b10000010000000 v$
b101 w$
b101 x$
b11000010110111001100100001000000111001000110100 y$
1z$
b1110000011010010111000001100101011011000110100101101110011001010010000001100011011000010110010001100101011011100110001101100101 {$
#110000
0/
#115000
0!
b100000000 ~#
b100000 }#
b0 &$
b0 )$
b0 '$
b10000000000000 N$
b11111 u$
1/
#120000
0/
#125000
b11111 u$
b100000000 ~#
1/
#126000
00
#127000
b0 1
b111100 |$
#130000
0/
#135000
b10000000001000 N$
b111111 l#
1r#
b111111 a#
b11110 }#
b111110 `#
b10 &$
b10 )$
b1 ($
b1 *$
b10000000001000 h#
b100100011 d#
b100100011 e#
b100100011 c#
b101 i#
b10010 f#
b10010001010000000000000100100011 b#
b10 +$
b10000000001000 j"
b1100 ~#
b10000000000000 i"
b1 1
1/
#140000
0/
