sim/fp_only.vcd
$date
	Wed Apr 15 18:46:35 2026
$end
$version
	Icarus Verilog
$end
$timescale
	1ps
$end
$scope module tb_fp_only $end
$var wire 1 ! hlt $end
$var parameter 5 " OP_ADDF $end
$var parameter 5 # OP_DIVF $end
$var parameter 5 $ OP_MULF $end
$var parameter 5 % OP_PRIV $end
$var parameter 5 & OP_SUBF $end
$var reg 1 ' clk $end
$var reg 1 ( reset $end
$var integer 32 ) cycles [31:0] $end
$var integer 32 * fails [31:0] $end
$scope function enc_rrr $end
$var reg 5 + opcode [4:0] $end
$var reg 5 , rd [4:0] $end
$var reg 5 - rs [4:0] $end
$var reg 5 . rt [4:0] $end
$upscope $end
$scope module dut $end
$var wire 1 ' clk $end
$var wire 1 ( reset $end
$var wire 64 / unused_sp_data [63:0] $end
$var wire 64 0 unused_read_c [63:0] $end
$var wire 64 1 unused_read_b [63:0] $end
$var wire 64 2 unused_read_a [63:0] $end
$var wire 32 3 unused_inst_word [31:0] $end
$var wire 64 4 unused_data_word [63:0] $end
$var wire 64 5 fpu1_pipe_result [63:0] $end
$var wire 64 6 fpu0_pipe_result [63:0] $end
$var wire 1 7 alu1_pipe_zero $end
$var wire 64 8 alu1_pipe_result [63:0] $end
$var wire 1 9 alu1_pipe_gt $end
$var wire 1 : alu0_pipe_zero $end
$var wire 64 ; alu0_pipe_result [63:0] $end
$var wire 1 < alu0_pipe_gt $end
$var parameter 6 = ALU_ADD $end
$var parameter 6 > ALU_AND $end
$var parameter 6 ? ALU_DIV $end
$var parameter 6 @ ALU_FADD $end
$var parameter 6 A ALU_FDIV $end
$var parameter 6 B ALU_FMUL $end
$var parameter 6 C ALU_FSUB $end
$var parameter 6 D ALU_MUL $end
$var parameter 6 E ALU_NOT $end
$var parameter 6 F ALU_OR $end
$var parameter 6 G ALU_PASS_A $end
$var parameter 6 H ALU_PASS_B $end
$var parameter 6 I ALU_SHL $end
$var parameter 6 J ALU_SHR $end
$var parameter 6 K ALU_SUB $end
$var parameter 6 L ALU_XOR $end
$var parameter 32 M ARCH_REGS $end
$var parameter 32 N BHT_SIZE $end
$var parameter 33 O FREE_COUNT_MAX $end
$var parameter 32 P LSQ_SIZE $end
$var parameter 64 Q MEM_SIZE $end
$var parameter 5 R OP_ADD $end
$var parameter 5 S OP_ADDF $end
$var parameter 5 T OP_ADDI $end
$var parameter 5 U OP_AND $end
$var parameter 5 V OP_BR $end
$var parameter 5 W OP_BRGT $end
$var parameter 5 X OP_BRNZ $end
$var parameter 5 Y OP_BRR_LIT $end
$var parameter 5 Z OP_BRR_REG $end
$var parameter 5 [ OP_CALL $end
$var parameter 5 \ OP_DIV $end
$var parameter 5 ] OP_DIVF $end
$var parameter 5 ^ OP_MOV_LIT $end
$var parameter 5 _ OP_MOV_LOAD $end
$var parameter 5 ` OP_MOV_REG $end
$var parameter 5 a OP_MOV_STORE $end
$var parameter 5 b OP_MUL $end
$var parameter 5 c OP_MULF $end
$var parameter 5 d OP_NOT $end
$var parameter 5 e OP_OR $end
$var parameter 5 f OP_PRIV $end
$var parameter 5 g OP_RETURN $end
$var parameter 5 h OP_SHFTL $end
$var parameter 5 i OP_SHFTLI $end
$var parameter 5 j OP_SHFTR $end
$var parameter 5 k OP_SHFTRI $end
$var parameter 5 l OP_SUB $end
$var parameter 5 m OP_SUBF $end
$var parameter 5 n OP_SUBI $end
$var parameter 5 o OP_XOR $end
$var parameter 32 p PHYS_REGS $end
$var parameter 32 q ROB_SIZE $end
$var parameter 32 r RS_SIZE $end
$var reg 64 s alu0_pipe_a [63:0] $end
$var reg 64 t alu0_pipe_b [63:0] $end
$var reg 6 u alu0_pipe_op [5:0] $end
$var reg 64 v alu0_s0_a [63:0] $end
$var reg 64 w alu0_s0_b [63:0] $end
$var reg 64 x alu0_s0_c [63:0] $end
$var reg 6 y alu0_s0_dest_phys [5:0] $end
$var reg 1 z alu0_s0_has_dest $end
$var reg 1 { alu0_s0_is_branch $end
$var reg 5 | alu0_s0_opcode [4:0] $end
$var reg 64 } alu0_s0_pc [63:0] $end
$var reg 1 ~ alu0_s0_pred_taken $end
$var reg 64 !" alu0_s0_pred_target [63:0] $end
$var reg 4 "" alu0_s0_rob_idx [3:0] $end
$var reg 1 #" alu0_s0_valid $end
$var reg 64 $" alu0_s1_a [63:0] $end
$var reg 64 %" alu0_s1_b [63:0] $end
$var reg 64 &" alu0_s1_c [63:0] $end
$var reg 6 '" alu0_s1_dest_phys [5:0] $end
$var reg 1 (" alu0_s1_has_dest $end
$var reg 1 )" alu0_s1_is_branch $end
$var reg 5 *" alu0_s1_opcode [4:0] $end
$var reg 64 +" alu0_s1_pc [63:0] $end
$var reg 1 ," alu0_s1_pred_taken $end
$var reg 64 -" alu0_s1_pred_target [63:0] $end
$var reg 64 ." alu0_s1_result [63:0] $end
$var reg 4 /" alu0_s1_rob_idx [3:0] $end
$var reg 1 0" alu0_s1_valid $end
$var reg 64 1" alu1_pipe_a [63:0] $end
$var reg 64 2" alu1_pipe_b [63:0] $end
$var reg 6 3" alu1_pipe_op [5:0] $end
$var reg 64 4" alu1_s0_a [63:0] $end
$var reg 64 5" alu1_s0_b [63:0] $end
$var reg 64 6" alu1_s0_c [63:0] $end
$var reg 6 7" alu1_s0_dest_phys [5:0] $end
$var reg 1 8" alu1_s0_has_dest $end
$var reg 1 9" alu1_s0_is_branch $end
$var reg 5 :" alu1_s0_opcode [4:0] $end
$var reg 64 ;" alu1_s0_pc [63:0] $end
$var reg 1 <" alu1_s0_pred_taken $end
$var reg 64 =" alu1_s0_pred_target [63:0] $end
$var reg 4 >" alu1_s0_rob_idx [3:0] $end
$var reg 1 ?" alu1_s0_valid $end
$var reg 64 @" alu1_s1_a [63:0] $end
$var reg 64 A" alu1_s1_b [63:0] $end
$var reg 64 B" alu1_s1_c [63:0] $end
$var reg 6 C" alu1_s1_dest_phys [5:0] $end
$var reg 1 D" alu1_s1_has_dest $end
$var reg 1 E" alu1_s1_is_branch $end
$var reg 5 F" alu1_s1_opcode [4:0] $end
$var reg 64 G" alu1_s1_pc [63:0] $end
$var reg 1 H" alu1_s1_pred_taken $end
$var reg 64 I" alu1_s1_pred_target [63:0] $end
$var reg 64 J" alu1_s1_result [63:0] $end
$var reg 4 K" alu1_s1_rob_idx [3:0] $end
$var reg 1 L" alu1_s1_valid $end
$var reg 1 M" branch_taken $end
$var reg 64 N" branch_target [63:0] $end
$var reg 1 O" checkpoint_valid $end
$var reg 64 P" correct_pc [63:0] $end
$var reg 64 Q" fetch_pc_next [63:0] $end
$var reg 1 R" fetch_stop $end
$var reg 1 S" forward_blocked $end
$var reg 1 T" forward_found $end
$var reg 64 U" forwarded_value [63:0] $end
$var reg 64 V" fpu0_pipe_a [63:0] $end
$var reg 64 W" fpu0_pipe_b [63:0] $end
$var reg 6 X" fpu0_pipe_op [5:0] $end
$var reg 64 Y" fpu0_s0_a [63:0] $end
$var reg 64 Z" fpu0_s0_b [63:0] $end
$var reg 6 [" fpu0_s0_dest_phys [5:0] $end
$var reg 1 \" fpu0_s0_has_dest $end
$var reg 5 ]" fpu0_s0_opcode [4:0] $end
$var reg 4 ^" fpu0_s0_rob_idx [3:0] $end
$var reg 1 _" fpu0_s0_valid $end
$var reg 6 `" fpu0_s1_dest_phys [5:0] $end
$var reg 1 a" fpu0_s1_has_dest $end
$var reg 64 b" fpu0_s1_result [63:0] $end
$var reg 4 c" fpu0_s1_rob_idx [3:0] $end
$var reg 1 d" fpu0_s1_valid $end
$var reg 6 e" fpu0_s2_dest_phys [5:0] $end
$var reg 1 f" fpu0_s2_has_dest $end
$var reg 64 g" fpu0_s2_result [63:0] $end
$var reg 4 h" fpu0_s2_rob_idx [3:0] $end
$var reg 1 i" fpu0_s2_valid $end
$var reg 6 j" fpu0_s3_dest_phys [5:0] $end
$var reg 1 k" fpu0_s3_has_dest $end
$var reg 64 l" fpu0_s3_result [63:0] $end
$var reg 4 m" fpu0_s3_rob_idx [3:0] $end
$var reg 1 n" fpu0_s3_valid $end
$var reg 64 o" fpu1_pipe_a [63:0] $end
$var reg 64 p" fpu1_pipe_b [63:0] $end
$var reg 6 q" fpu1_pipe_op [5:0] $end
$var reg 64 r" fpu1_s0_a [63:0] $end
$var reg 64 s" fpu1_s0_b [63:0] $end
$var reg 6 t" fpu1_s0_dest_phys [5:0] $end
$var reg 1 u" fpu1_s0_has_dest $end
$var reg 5 v" fpu1_s0_opcode [4:0] $end
$var reg 4 w" fpu1_s0_rob_idx [3:0] $end
$var reg 1 x" fpu1_s0_valid $end
$var reg 6 y" fpu1_s1_dest_phys [5:0] $end
$var reg 1 z" fpu1_s1_has_dest $end
$var reg 64 {" fpu1_s1_result [63:0] $end
$var reg 4 |" fpu1_s1_rob_idx [3:0] $end
$var reg 1 }" fpu1_s1_valid $end
$var reg 6 ~" fpu1_s2_dest_phys [5:0] $end
$var reg 1 !# fpu1_s2_has_dest $end
$var reg 64 "# fpu1_s2_result [63:0] $end
$var reg 4 ## fpu1_s2_rob_idx [3:0] $end
$var reg 1 $# fpu1_s2_valid $end
$var reg 6 %# fpu1_s3_dest_phys [5:0] $end
$var reg 1 &# fpu1_s3_has_dest $end
$var reg 64 '# fpu1_s3_result [63:0] $end
$var reg 4 (# fpu1_s3_rob_idx [3:0] $end
$var reg 1 )# fpu1_s3_valid $end
$var reg 1 *# halt_inflight $end
$var reg 1 ! hlt $end
$var reg 64 +# lsu0_s0_addr [63:0] $end
$var reg 64 ,# lsu0_s0_base [63:0] $end
$var reg 64 -# lsu0_s0_imm [63:0] $end
$var reg 1 .# lsu0_s0_is_addr $end
$var reg 3 /# lsu0_s0_lsq_idx [2:0] $end
$var reg 4 0# lsu0_s0_rob_idx [3:0] $end
$var reg 1 1# lsu0_s0_valid $end
$var reg 64 2# lsu0_s1_addr [63:0] $end
$var reg 1 3# lsu0_s1_is_addr $end
$var reg 3 4# lsu0_s1_lsq_idx [2:0] $end
$var reg 64 5# lsu0_s1_result [63:0] $end
$var reg 4 6# lsu0_s1_rob_idx [3:0] $end
$var reg 1 7# lsu0_s1_valid $end
$var reg 64 8# lsu1_s0_addr [63:0] $end
$var reg 64 9# lsu1_s0_base [63:0] $end
$var reg 64 :# lsu1_s0_imm [63:0] $end
$var reg 1 ;# lsu1_s0_is_addr $end
$var reg 3 <# lsu1_s0_lsq_idx [2:0] $end
$var reg 4 =# lsu1_s0_rob_idx [3:0] $end
$var reg 1 ># lsu1_s0_valid $end
$var reg 64 ?# lsu1_s1_addr [63:0] $end
$var reg 1 @# lsu1_s1_is_addr $end
$var reg 3 A# lsu1_s1_lsq_idx [2:0] $end
$var reg 64 B# lsu1_s1_result [63:0] $end
$var reg 4 C# lsu1_s1_rob_idx [3:0] $end
$var reg 1 D# lsu1_s1_valid $end
$var reg 1 E# mispredict $end
$var reg 1 F# need_dest_phys $end
$var reg 6 G# new_dest_phys [5:0] $end
$var reg 6 H# old_dest_phys [5:0] $end
$var reg 32 I# slot_inst [31:0] $end
$var reg 12 J# slot_lit12 [11:0] $end
$var reg 64 K# slot_lit_sext [63:0] $end
$var reg 64 L# slot_lit_zext [63:0] $end
$var reg 5 M# slot_opcode [4:0] $end
$var reg 1 N# slot_pred_taken $end
$var reg 64 O# slot_pred_target [63:0] $end
$var reg 5 P# slot_rd [4:0] $end
$var reg 5 Q# slot_rs [4:0] $end
$var reg 5 R# slot_rt [4:0] $end
$var reg 6 S# src_tag [5:0] $end
$var reg 6 T# src_tag1 [5:0] $end
$var reg 6 U# src_tag2 [5:0] $end
$var reg 64 V# src_val [63:0] $end
$var reg 64 W# src_val1 [63:0] $end
$var reg 64 X# src_val2 [63:0] $end
$var reg 1 Y# src_wait $end
$var reg 1 Z# src_wait1 $end
$var reg 1 [# src_wait2 $end
$var integer 32 \# addr_idx [31:0] $end
$var integer 32 ]# alu_pick0 [31:0] $end
$var integer 32 ^# alu_pick1 [31:0] $end
$var integer 32 _# checkpoint_free_count [31:0] $end
$var integer 32 `# checkpoint_rob_idx [31:0] $end
$var integer 32 a# fetch_bht_idx [31:0] $end
$var integer 32 b# fpu_pick0 [31:0] $end
$var integer 32 c# fpu_pick1 [31:0] $end
$var integer 32 d# free_count [31:0] $end
$var integer 32 e# i [31:0] $end
$var integer 32 f# k [31:0] $end
$var integer 32 g# load_best_store [31:0] $end
$var integer 32 h# ls_pick0 [31:0] $end
$var integer 32 i# ls_pick1 [31:0] $end
$var integer 32 j# lsq_idx [31:0] $end
$var integer 32 k# rob_count [31:0] $end
$var integer 32 l# rob_head [31:0] $end
$var integer 32 m# rob_idx [31:0] $end
$var integer 32 n# rob_tail [31:0] $end
$var integer 32 o# rs_idx [31:0] $end
$var integer 32 p# slot [31:0] $end
$scope function alu_sel_for_opcode $end
$upscope $end
$scope function bht_idx $end
$upscope $end
$scope function fpu_sel_for_opcode $end
$upscope $end
$scope function has_dest_opcode $end
$upscope $end
$scope function is_branch_opcode $end
$upscope $end
$scope function is_fpu_opcode $end
$upscope $end
$scope function is_halt_opcode $end
$upscope $end
$scope function is_load_opcode $end
$upscope $end
$scope function is_store_opcode $end
$upscope $end
$scope function read_inst32 $end
$upscope $end
$scope function read_mem64_direct $end
$upscope $end
$scope function rob_distance $end
$upscope $end
$scope function rob_inc $end
$upscope $end
$scope function rob_younger_than $end
$upscope $end
$scope function signext12 $end
$upscope $end
$scope module alu0 $end
$var wire 64 q# a [63:0] $end
$var wire 64 r# b [63:0] $end
$var wire 6 s# op [5:0] $end
$var wire 1 : a_is_zero $end
$var wire 1 < a_gt_b_signed $end
$var parameter 6 t# ALU_ADD $end
$var parameter 6 u# ALU_AND $end
$var parameter 6 v# ALU_DIV $end
$var parameter 6 w# ALU_MUL $end
$var parameter 6 x# ALU_NOT $end
$var parameter 6 y# ALU_OR $end
$var parameter 6 z# ALU_PASS_A $end
$var parameter 6 {# ALU_PASS_B $end
$var parameter 6 |# ALU_SHL $end
$var parameter 6 }# ALU_SHR $end
$var parameter 6 ~# ALU_SUB $end
$var parameter 6 !$ ALU_XOR $end
$var reg 64 "$ result [63:0] $end
$upscope $end
$scope module alu1 $end
$var wire 64 #$ a [63:0] $end
$var wire 64 $$ b [63:0] $end
$var wire 6 %$ op [5:0] $end
$var wire 1 7 a_is_zero $end
$var wire 1 9 a_gt_b_signed $end
$var parameter 6 &$ ALU_ADD $end
$var parameter 6 '$ ALU_AND $end
$var parameter 6 ($ ALU_DIV $end
$var parameter 6 )$ ALU_MUL $end
$var parameter 6 *$ ALU_NOT $end
$var parameter 6 +$ ALU_OR $end
$var parameter 6 ,$ ALU_PASS_A $end
$var parameter 6 -$ ALU_PASS_B $end
$var parameter 6 .$ ALU_SHL $end
$var parameter 6 /$ ALU_SHR $end
$var parameter 6 0$ ALU_SUB $end
$var parameter 6 1$ ALU_XOR $end
$var reg 64 2$ result [63:0] $end
$upscope $end
$scope module fetch $end
$var wire 1 ' clk $end
$var wire 64 3$ pc_next [63:0] $end
$var wire 1 4$ pc_write $end
$var wire 1 ( reset $end
$var reg 64 5$ pc [63:0] $end
$upscope $end
$scope module fpu $end
$var wire 64 6$ a [63:0] $end
$var wire 64 7$ b [63:0] $end
$var wire 6 8$ op [5:0] $end
$var parameter 6 9$ ALU_FADD $end
$var parameter 6 :$ ALU_FDIV $end
$var parameter 6 ;$ ALU_FMUL $end
$var parameter 6 <$ ALU_FSUB $end
$var parameter 64 =$ QUIET_NAN $end
$var reg 64 >$ result [63:0] $end
$scope function fp_addsub64 $end
$upscope $end
$scope function fp_div64 $end
$upscope $end
$scope function fp_mul64 $end
$upscope $end
$scope function is_inf64 $end
$upscope $end
$scope function is_nan64 $end
$upscope $end
$scope function is_zero64 $end
$upscope $end
$scope function pack $end
$upscope $end
$scope function shr_sticky56 $end
$upscope $end
$upscope $end
$scope module fpu1 $end
$var wire 64 ?$ a [63:0] $end
$var wire 64 @$ b [63:0] $end
$var wire 6 A$ op [5:0] $end
$var parameter 6 B$ ALU_FADD $end
$var parameter 6 C$ ALU_FDIV $end
$var parameter 6 D$ ALU_FMUL $end
$var parameter 6 E$ ALU_FSUB $end
$var parameter 64 F$ QUIET_NAN $end
$var reg 64 G$ result [63:0] $end
$scope function fp_addsub64 $end
$upscope $end
$scope function fp_div64 $end
$upscope $end
$scope function fp_mul64 $end
$upscope $end
$scope function is_inf64 $end
$upscope $end
$scope function is_nan64 $end
$upscope $end
$scope function is_zero64 $end
$upscope $end
$scope function pack $end
$upscope $end
$scope function shr_sticky56 $end
$upscope $end
$upscope $end
$scope module memory $end
$var wire 1 ' clk $end
$var wire 64 H$ data_addr [63:0] $end
$var wire 64 I$ data_write_data [63:0] $end
$var wire 1 J$ data_write_en $end
$var wire 64 K$ inst_addr [63:0] $end
$var wire 32 L$ inst_word [31:0] $end
$var wire 32 M$ inst_idx [31:0] $end
$var wire 64 N$ data_read_data [63:0] $end
$var wire 32 O$ data_idx [31:0] $end
$var parameter 64 P$ MEM_SIZE $end
$upscope $end
$scope module reg_file $end
$var wire 1 ' clk $end
$var wire 5 Q$ read_addr_a [4:0] $end
$var wire 5 R$ read_addr_b [4:0] $end
$var wire 5 S$ read_addr_c [4:0] $end
$var wire 64 T$ read_data_a [63:0] $end
$var wire 64 U$ read_data_b [63:0] $end
$var wire 64 V$ read_data_c [63:0] $end
$var wire 1 ( reset $end
$var wire 64 W$ sp_data [63:0] $end
$var wire 5 X$ write_addr [4:0] $end
$var wire 64 Y$ write_data [63:0] $end
$var wire 1 Z$ write_en $end
$var parameter 64 [$ MEM_SIZE $end
$var integer 32 \$ i [31:0] $end
$upscope $end
$scope task capture_operand $end
$upscope $end
$scope task capture_operand_from_phys $end
$upscope $end
$scope task finish_result $end
$upscope $end
$scope task predict_instruction $end
$upscope $end
$scope task scan_store_forward $end
$upscope $end
$scope task wakeup_tag $end
$upscope $end
$upscope $end
$scope task clear_program $end
$var integer 32 ]$ i [31:0] $end
$upscope $end
$scope task do_reset $end
$upscope $end
$scope task expect64 $end
$var reg 64 ^$ exp [63:0] $end
$var reg 64 _$ got [63:0] $end
$var reg 256 `$ name [255:0] $end
$upscope $end
$scope task expect_nan $end
$var reg 64 a$ got [63:0] $end
$var reg 256 b$ name [255:0] $end
$upscope $end
$scope task run_fp_case $end
$var reg 32 c$ inst [31:0] $end
$var reg 5 d$ rd [4:0] $end
$var reg 5 e$ rs [4:0] $end
$var reg 64 f$ rs_value [63:0] $end
$var reg 5 g$ rt [4:0] $end
$var reg 64 h$ rt_value [63:0] $end
$upscope $end
$scope task run_until_halt $end
$var integer 32 i$ max_cycles [31:0] $end
$upscope $end
$scope task write_inst $end
$var reg 64 j$ addr [63:0] $end
$var reg 32 k$ inst [31:0] $end
$upscope $end
$upscope $end
$enddefinitions $end
$comment Show the parameter values. $end
$dumpall
b10000000000000000000 [$
b10000000000000000000 P$
b111111111111000000000000000000000000000000000000000000000000000 F$
b1101 E$
b1110 D$
b1111 C$
b1100 B$
b111111111111000000000000000000000000000000000000000000000000000 =$
b1101 <$
b1110 ;$
b1111 :$
b1100 9$
b100 1$
b1001 0$
b110 /$
b111 .$
b1 -$
b0 ,$
b11 +$
b101 *$
b1010 )$
b1011 ($
b10 '$
b1000 &$
b100 !$
b1001 ~#
b110 }#
b111 |#
b1 {#
b0 z#
b11 y#
b101 x#
b1010 w#
b1011 v#
b10 u#
b1000 t#
b1100 r
b10000 q
b1000000 p
b10 o
b11011 n
b10101 m
b11010 l
b101 k
b100 j
b111 i
b110 h
b1101 g
b1111 f
b1 e
b11 d
b10110 c
b11100 b
b10011 a
b10001 `
b10000 _
b10010 ^
b10111 ]
b11101 \
b1100 [
b1001 Z
b1010 Y
b1011 X
b1110 W
b1000 V
b0 U
b11001 T
b10100 S
b11000 R
b10000000000000000000 Q
b1000 P
b100000 O
b10000 N
b100000 M
b100 L
b1001 K
b110 J
b111 I
b1 H
b0 G
b11 F
b101 E
b1010 D
b1101 C
b1110 B
b1111 A
b1100 @
b1011 ?
b10 >
b1000 =
b10101 &
b1111 %
b10110 $
b10111 #
b10100 "
$end
#0
$dumpvars
b1111000000000000000000000000000 k$
b10000000000100 j$
bx i$
b11111111111000000000000000000000000000000000000000000000000000 h$
b11 g$
b11111111111000000000000000000000000000000000000000000000000000 f$
b10 e$
b1 d$
b10100000010001000011000000000000 c$
bx b$
bx a$
bx `$
bx _$
bx ^$
b10000001000000 ]$
bx \$
0Z$
b0 Y$
b0 X$
bx W$
bx V$
bx U$
bx T$
b0 S$
b0 R$
b0 Q$
b0 O$
bx N$
b0 M$
bx L$
b0 K$
0J$
b0 I$
b0 H$
bx G$
bx A$
bx @$
bx ?$
bx >$
bx 8$
bx 7$
bx 6$
b10000000000000 5$
04$
b0 3$
bx 2$
bx %$
bx $$
bx #$
bx "$
bx s#
bx r#
bx q#
bx p#
bx o#
bx n#
bx m#
bx l#
bx k#
bx j#
bx i#
bx h#
bx g#
bx f#
bx e#
bx d#
bx c#
bx b#
bx a#
bx `#
bx _#
bx ^#
bx ]#
bx \#
x[#
xZ#
xY#
bx X#
bx W#
bx V#
bx U#
bx T#
bx S#
bx R#
bx Q#
bx P#
bx O#
xN#
bx M#
bx L#
bx K#
bx J#
bx I#
bx H#
bx G#
xF#
xE#
xD#
bx C#
bx B#
bx A#
x@#
bx ?#
x>#
bx =#
bx <#
x;#
bx :#
bx 9#
bx 8#
x7#
bx 6#
bx 5#
bx 4#
x3#
bx 2#
x1#
bx 0#
bx /#
x.#
bx -#
bx ,#
bx +#
x*#
x)#
bx (#
bx '#
x&#
bx %#
x$#
bx ##
bx "#
x!#
bx ~"
x}"
bx |"
bx {"
xz"
bx y"
xx"
bx w"
bx v"
xu"
bx t"
bx s"
bx r"
bx q"
bx p"
bx o"
xn"
bx m"
bx l"
xk"
bx j"
xi"
bx h"
bx g"
xf"
bx e"
xd"
bx c"
bx b"
xa"
bx `"
x_"
bx ^"
bx ]"
x\"
bx ["
bx Z"
bx Y"
bx X"
bx W"
bx V"
bx U"
xT"
xS"
xR"
bx Q"
bx P"
xO"
bx N"
xM"
xL"
bx K"
bx J"
bx I"
xH"
bx G"
bx F"
xE"
xD"
bx C"
bx B"
bx A"
bx @"
x?"
bx >"
bx ="
x<"
bx ;"
bx :"
x9"
x8"
bx 7"
bx 6"
bx 5"
bx 4"
bx 3"
bx 2"
bx 1"
x0"
bx /"
bx ."
bx -"
x,"
bx +"
bx *"
x)"
x("
bx '"
bx &"
bx %"
bx $"
x#"
bx ""
bx !"
x~
bx }
bx |
x{
xz
bx y
bx x
bx w
bx v
bx u
bx t
bx s
x<
bx ;
x:
x9
bx 8
x7
bx 6
bx 5
bx 4
bx 3
bx 2
bx 1
bx 0
bx /
b11 .
b10 -
b1 ,
b10100 +
b0 *
b0 )
1(
0'
x!
$end
#5000
b10000000000000000000 /
b10000000000000000000 W$
b0 2
b0 T$
b0 1
b0 U$
b0 0
b0 V$
0!
b11111 \$
b10000 e#
0D#
07#
0>#
01#
0)#
0n"
0$#
0i"
0}"
0d"
0x"
0_"
0L"
00"
0?"
0#"
b100000 _#
b100000 d#
b0 `#
0O"
b0 k#
b0 n#
b0 l#
1'
#10000
0'
#15000
b10000 e#
b11111 \$
1'
#16000
0(
#17000
b1010000 i$
#20000
0'
#25000
b10000000001000 5$
b11111111111000000000000000000000000000000000000000000000000000 W#
b11 T#
0Z#
b11111111111000000000000000000000000000000000000000000000000000 V#
b10 S#
0Y#
b1 H#
b11111 d#
b111111 G#
b10 k#
b10 n#
b1 m#
b1 o#
0F#
b10000000001000 O#
0N#
b0 K#
b0 L#
b0 J#
b0 R#
b0 Q#
b0 P#
b1111 M#
b1111000000000000000000000000000 I#
b10 p#
0*#
1R"
b10000000001000 Q"
b1100 e#
b11111111111111111111111111111111 i#
b11111111111111111111111111111111 h#
b11111111111111111111111111111111 c#
b11111111111111111111111111111111 b#
b11111111111111111111111111111111 ^#
b11111111111111111111111111111111 ]#
b0 B#
b0 5#
b0 U"
0S"
0T"
b11111111111111111111111111111111 g#
b10000000000000 P"
0E#
b1 )
1'
#30000
0'
#35000
b100000000001000000000000000000000000000000000000000000000000000 6
b100000000001000000000000000000000000000000000000000000000000000 >$
b1100 q"
b1100 A$
b1100 X"
b1100 8$
b11111111111000000000000000000000000000000000000000000000000000 W"
b11111111111000000000000000000000000000000000000000000000000000 7$
b11111111111000000000000000000000000000000000000000000000000000 V"
b11111111111000000000000000000000000000000000000000000000000000 6$
b0 3"
b0 %$
b0 u
b0 s#
b10 p#
1*#
1R"
b0 ^"
b111111 ["
1\"
b11111111111000000000000000000000000000000000000000000000000000 Z"
b11111111111000000000000000000000000000000000000000000000000000 Y"
b10100 ]"
1_"
b0 b#
b10000 e#
b10 )
b10000000001000 P"
1'
#40000
0'
#45000
b10 p#
1*#
1R"
b10000 e#
b11111111111111111111111111111111 b#
0_"
b11 )
b0 c"
b111111 `"
1a"
b100000000001000000000000000000000000000000000000000000000000000 b"
1d"
1'
#50000
0'
#55000
b10 p#
1*#
1R"
b10000 e#
b100 )
0d"
b0 h"
b111111 e"
1f"
b100000000001000000000000000000000000000000000000000000000000000 g"
1i"
1'
#60000
0'
#65000
b10 p#
1*#
1R"
b10000 e#
b101 )
0i"
b0 m"
b111111 j"
1k"
b100000000001000000000000000000000000000000000000000000000000000 l"
1n"
1'
#70000
0'
#75000
b10 p#
1*#
1R"
b10000 e#
0n"
b1 k#
b1 l#
b1000 f#
b110 )
1'
#80000
0'
#85000
1!
b10000000010000 5$
b10000000010000 Q"
b0 W#
b111101 T#
1Z#
b0 V#
b111101 S#
1Y#
b111110 H#
b11101 d#
b111101 G#
b100 n#
b11 m#
b1 o#
1F#
b10000000010000 O#
b0 M#
b0 I#
b10 p#
0*#
0R"
b1100 e#
b111 )
b10 k#
b10 l#
1'
#90000
0'
#95000
b1000 )
1'
#96000
1(
b1111000000000000000000000000000 k$
b10000000000100 j$
b10000001000000 ]$
b100000000000010000000000000000000000000000000000000000000000000 h$
b100000000010110000000000000000000000000000000000000000000000000 f$
b110 g$
b101 e$
b100 d$
b10101001000010100110000000000000 c$
b10101 +
b100 ,
b101 -
b110 .
b100000000001000000000000000000000000000000000000000000000000000 ^$
b100000000001000000000000000000000000000000000000000000000000000 _$
b1000001010001000100010001000110001000000110001001100001011100110110100101100011 `$
#100000
0'
#105000
0!
b10000 e#
b100000 d#
b0 k#
b0 n#
b0 l#
b10000000000000 5$
b11111 \$
1'
#110000
0'
#115000
b11111 \$
b10000 e#
1'
#116000
0(
#117000
b0 )
#120000
0'
#125000
b10000000001000 5$
1R"
0F#
b100000000000010000000000000000000000000000000000000000000000000 W#
b110 T#
0Z#
b100000000010110000000000000000000000000000000000000000000000000 V#
b101 S#
0Y#
b100 H#
b11111 d#
b111111 G#
b10 k#
b10 n#
b1 m#
b1 o#
b10000000001000 O#
b0 R#
b0 Q#
b0 P#
b1111 M#
b1111000000000000000000000000000 I#
b10 p#
b10000000001000 Q"
b1100 e#
b10000000000000 P"
b1 )
1'
#130000
0'
#135000
b100000000001010000000000000000000000000000000000000000000000000 6
b100000000001010000000000000000000000000000000000000000000000000 >$
b1101 X"
b1101 8$
b100000000000010000000000000000000000000000000000000000000000000 W"
b100000000000010000000000000000000000000000000000000000000000000 7$
b100000000010110000000000000000000000000000000000000000000000000 V"
b100000000010110000000000000000000000000000000000000000000000000 6$
b10 p#
1*#
1R"
b100000000000010000000000000000000000000000000000000000000000000 Z"
b100000000010110000000000000000000000000000000000000000000000000 Y"
b10101 ]"
1_"
b0 b#
b10000 e#
b10 )
b10000000001000 P"
1'
#140000
0'
#145000
b10 p#
1*#
1R"
b10000 e#
b11111111111111111111111111111111 b#
0_"
b11 )
b100000000001010000000000000000000000000000000000000000000000000 b"
1d"
1'
#150000
0'
#155000
b10 p#
1*#
1R"
b10000 e#
b100 )
0d"
b100000000001010000000000000000000000000000000000000000000000000 g"
1i"
1'
#160000
0'
#165000
b10 p#
1*#
1R"
b10000 e#
b101 )
0i"
b100000000001010000000000000000000000000000000000000000000000000 l"
1n"
1'
#170000
0'
#175000
b10 p#
1*#
1R"
b10000 e#
0n"
b1 k#
b1 l#
b1000 f#
b110 )
1'
#180000
0'
#185000
1!
b10000000010000 5$
b10000000010000 Q"
b0 W#
b111101 T#
1Z#
b0 V#
b111101 S#
1Y#
b111110 H#
b11101 d#
b111101 G#
b100 n#
b11 m#
b1 o#
1F#
b10000000010000 O#
b0 M#
b0 I#
b10 p#
0*#
0R"
b1100 e#
b111 )
b10 k#
b10 l#
1'
#190000
0'
#195000
b1000 )
1'
#196000
1(
b1111000000000000000000000000000 k$
b10000000000100 j$
b10000001000000 ]$
b100000000010000000000000000000000000000000000000000000000000000 h$
b100000000000100000000000000000000000000000000000000000000000000 f$
b1001 g$
b1000 e$
b111 d$
b10110001110100001001000000000000 c$
b10110 +
b111 ,
b1000 -
b1001 .
b100000000001010000000000000000000000000000000000000000000000000 ^$
b100000000001010000000000000000000000000000000000000000000000000 _$
b1010011010101010100001001000110001000000110001001100001011100110110100101100011 `$
#200000
0'
#205000
0!
b10000 e#
b100000 d#
b0 k#
b0 n#
b0 l#
b10000000000000 5$
b11111 \$
1'
#210000
0'
#215000
b11111 \$
b10000 e#
1'
#216000
0(
#217000
b0 )
#220000
0'
#225000
b10000000001000 5$
1R"
0F#
b100000000010000000000000000000000000000000000000000000000000000 W#
b1001 T#
0Z#
b100000000000100000000000000000000000000000000000000000000000000 V#
b1000 S#
0Y#
b111 H#
b11111 d#
b111111 G#
b10 k#
b10 n#
b1 m#
b1 o#
b10000000001000 O#
b0 R#
b0 Q#
b0 P#
b1111 M#
b1111000000000000000000000000000 I#
b10 p#
b10000000001000 Q"
b1100 e#
b10000000000000 P"
b1 )
1'
#230000
0'
