sim/new.vcd
$date
	Thu Apr 16 12:49:15 2026
$end
$version
	Icarus Verilog
$end
$timescale
	1ps
$end
$scope module tb_new $end
$var wire 1 ! hlt $end
$var parameter 64 " MEM_SIZE $end
$var parameter 5 # OP_ADD $end
$var parameter 5 $ OP_ADDF $end
$var parameter 5 % OP_ADDI $end
$var parameter 5 & OP_BR $end
$var parameter 5 ' OP_BRNZ $end
$var parameter 5 ( OP_BRR_LIT $end
$var parameter 5 ) OP_CALL $end
$var parameter 5 * OP_MOV_LOAD $end
$var parameter 5 + OP_MOV_STORE $end
$var parameter 5 , OP_PRIV $end
$var parameter 5 - OP_RETURN $end
$var parameter 5 . OP_SUBI $end
$var parameter 65 / RET_SLOT $end
$var reg 1 0 clk $end
$var reg 1 1 reset $end
$var integer 32 2 cycles [31:0] $end
$var integer 32 3 fails [31:0] $end
$var integer 32 4 fd [31:0] $end
$scope function enc_lit $end
$var reg 12 5 lit [11:0] $end
$var reg 5 6 opcode [4:0] $end
$upscope $end
$scope function enc_mov_load $end
$var reg 12 7 lit [11:0] $end
$var reg 5 8 rd [4:0] $end
$var reg 5 9 rs [4:0] $end
$upscope $end
$scope function enc_mov_store $end
$var reg 12 : lit [11:0] $end
$var reg 5 ; rd [4:0] $end
$var reg 5 < rs [4:0] $end
$upscope $end
$scope function enc_r $end
$var reg 5 = opcode [4:0] $end
$var reg 5 > rd [4:0] $end
$upscope $end
$scope function enc_rd_lit $end
$var reg 12 ? lit [11:0] $end
$var reg 5 @ opcode [4:0] $end
$var reg 5 A rd [4:0] $end
$upscope $end
$scope function enc_rr $end
$var reg 5 B opcode [4:0] $end
$var reg 5 C rd [4:0] $end
$var reg 5 D rs [4:0] $end
$upscope $end
$scope function enc_rrr $end
$var reg 5 E opcode [4:0] $end
$var reg 5 F rd [4:0] $end
$var reg 5 G rs [4:0] $end
$var reg 5 H rt [4:0] $end
$upscope $end
$scope function read_mem64 $end
$var reg 64 I addr [63:0] $end
$upscope $end
$scope module dut $end
$var wire 1 0 clk $end
$var wire 1 1 reset $end
$var wire 64 J unused_sp_data [63:0] $end
$var wire 64 K unused_read_c [63:0] $end
$var wire 64 L unused_read_b [63:0] $end
$var wire 64 M unused_read_a [63:0] $end
$var wire 32 N unused_inst_word [31:0] $end
$var wire 64 O unused_data_word [63:0] $end
$var wire 64 P fpu1_pipe_result [63:0] $end
$var wire 64 Q fpu0_pipe_result [63:0] $end
$var wire 1 R alu1_pipe_zero $end
$var wire 64 S alu1_pipe_result [63:0] $end
$var wire 1 T alu1_pipe_gt $end
$var wire 1 U alu0_pipe_zero $end
$var wire 64 V alu0_pipe_result [63:0] $end
$var wire 1 W alu0_pipe_gt $end
$var parameter 6 X ALU_ADD $end
$var parameter 6 Y ALU_AND $end
$var parameter 6 Z ALU_DIV $end
$var parameter 6 [ ALU_FADD $end
$var parameter 6 \ ALU_FDIV $end
$var parameter 6 ] ALU_FMUL $end
$var parameter 6 ^ ALU_FSUB $end
$var parameter 6 _ ALU_MUL $end
$var parameter 6 ` ALU_NOT $end
$var parameter 6 a ALU_OR $end
$var parameter 6 b ALU_PASS_A $end
$var parameter 6 c ALU_PASS_B $end
$var parameter 6 d ALU_SHL $end
$var parameter 6 e ALU_SHR $end
$var parameter 6 f ALU_SUB $end
$var parameter 6 g ALU_XOR $end
$var parameter 32 h ARCH_REGS $end
$var parameter 32 i BHT_SIZE $end
$var parameter 33 j FREE_COUNT_MAX $end
$var parameter 32 k LSQ_SIZE $end
$var parameter 64 l MEM_SIZE $end
$var parameter 5 m OP_ADD $end
$var parameter 5 n OP_ADDF $end
$var parameter 5 o OP_ADDI $end
$var parameter 5 p OP_AND $end
$var parameter 5 q OP_BR $end
$var parameter 5 r OP_BRGT $end
$var parameter 5 s OP_BRNZ $end
$var parameter 5 t OP_BRR_LIT $end
$var parameter 5 u OP_BRR_REG $end
$var parameter 5 v OP_CALL $end
$var parameter 5 w OP_DIV $end
$var parameter 5 x OP_DIVF $end
$var parameter 5 y OP_MOV_LIT $end
$var parameter 5 z OP_MOV_LOAD $end
$var parameter 5 { OP_MOV_REG $end
$var parameter 5 | OP_MOV_STORE $end
$var parameter 5 } OP_MUL $end
$var parameter 5 ~ OP_MULF $end
$var parameter 5 !" OP_NOT $end
$var parameter 5 "" OP_OR $end
$var parameter 5 #" OP_PRIV $end
$var parameter 5 $" OP_RETURN $end
$var parameter 5 %" OP_SHFTL $end
$var parameter 5 &" OP_SHFTLI $end
$var parameter 5 '" OP_SHFTR $end
$var parameter 5 (" OP_SHFTRI $end
$var parameter 5 )" OP_SUB $end
$var parameter 5 *" OP_SUBF $end
$var parameter 5 +" OP_SUBI $end
$var parameter 5 ," OP_XOR $end
$var parameter 32 -" PHYS_REGS $end
$var parameter 32 ." ROB_SIZE $end
$var parameter 32 /" RS_SIZE $end
$var reg 64 0" alu0_pipe_a [63:0] $end
$var reg 64 1" alu0_pipe_b [63:0] $end
$var reg 6 2" alu0_pipe_op [5:0] $end
$var reg 64 3" alu0_s0_a [63:0] $end
$var reg 64 4" alu0_s0_b [63:0] $end
$var reg 64 5" alu0_s0_c [63:0] $end
$var reg 6 6" alu0_s0_dest_phys [5:0] $end
$var reg 1 7" alu0_s0_has_dest $end
$var reg 1 8" alu0_s0_is_branch $end
$var reg 5 9" alu0_s0_opcode [4:0] $end
$var reg 64 :" alu0_s0_pc [63:0] $end
$var reg 1 ;" alu0_s0_pred_taken $end
$var reg 64 <" alu0_s0_pred_target [63:0] $end
$var reg 4 =" alu0_s0_rob_idx [3:0] $end
$var reg 1 >" alu0_s0_valid $end
$var reg 64 ?" alu0_s1_a [63:0] $end
$var reg 64 @" alu0_s1_b [63:0] $end
$var reg 64 A" alu0_s1_c [63:0] $end
$var reg 6 B" alu0_s1_dest_phys [5:0] $end
$var reg 1 C" alu0_s1_has_dest $end
$var reg 1 D" alu0_s1_is_branch $end
$var reg 5 E" alu0_s1_opcode [4:0] $end
$var reg 64 F" alu0_s1_pc [63:0] $end
$var reg 1 G" alu0_s1_pred_taken $end
$var reg 64 H" alu0_s1_pred_target [63:0] $end
$var reg 64 I" alu0_s1_result [63:0] $end
$var reg 4 J" alu0_s1_rob_idx [3:0] $end
$var reg 1 K" alu0_s1_valid $end
$var reg 64 L" alu1_pipe_a [63:0] $end
$var reg 64 M" alu1_pipe_b [63:0] $end
$var reg 6 N" alu1_pipe_op [5:0] $end
$var reg 64 O" alu1_s0_a [63:0] $end
$var reg 64 P" alu1_s0_b [63:0] $end
$var reg 64 Q" alu1_s0_c [63:0] $end
$var reg 6 R" alu1_s0_dest_phys [5:0] $end
$var reg 1 S" alu1_s0_has_dest $end
$var reg 1 T" alu1_s0_is_branch $end
$var reg 5 U" alu1_s0_opcode [4:0] $end
$var reg 64 V" alu1_s0_pc [63:0] $end
$var reg 1 W" alu1_s0_pred_taken $end
$var reg 64 X" alu1_s0_pred_target [63:0] $end
$var reg 4 Y" alu1_s0_rob_idx [3:0] $end
$var reg 1 Z" alu1_s0_valid $end
$var reg 64 [" alu1_s1_a [63:0] $end
$var reg 64 \" alu1_s1_b [63:0] $end
$var reg 64 ]" alu1_s1_c [63:0] $end
$var reg 6 ^" alu1_s1_dest_phys [5:0] $end
$var reg 1 _" alu1_s1_has_dest $end
$var reg 1 `" alu1_s1_is_branch $end
$var reg 5 a" alu1_s1_opcode [4:0] $end
$var reg 64 b" alu1_s1_pc [63:0] $end
$var reg 1 c" alu1_s1_pred_taken $end
$var reg 64 d" alu1_s1_pred_target [63:0] $end
$var reg 64 e" alu1_s1_result [63:0] $end
$var reg 4 f" alu1_s1_rob_idx [3:0] $end
$var reg 1 g" alu1_s1_valid $end
$var reg 1 h" branch_taken $end
$var reg 64 i" branch_target [63:0] $end
$var reg 1 j" checkpoint_valid $end
$var reg 64 k" correct_pc [63:0] $end
$var reg 64 l" fetch_pc_next [63:0] $end
$var reg 1 m" fetch_stop $end
$var reg 1 n" forward_blocked $end
$var reg 1 o" forward_found $end
$var reg 64 p" forwarded_value [63:0] $end
$var reg 64 q" fpu0_pipe_a [63:0] $end
$var reg 64 r" fpu0_pipe_b [63:0] $end
$var reg 6 s" fpu0_pipe_op [5:0] $end
$var reg 64 t" fpu0_s0_a [63:0] $end
$var reg 64 u" fpu0_s0_b [63:0] $end
$var reg 6 v" fpu0_s0_dest_phys [5:0] $end
$var reg 1 w" fpu0_s0_has_dest $end
$var reg 5 x" fpu0_s0_opcode [4:0] $end
$var reg 4 y" fpu0_s0_rob_idx [3:0] $end
$var reg 1 z" fpu0_s0_valid $end
$var reg 6 {" fpu0_s1_dest_phys [5:0] $end
$var reg 1 |" fpu0_s1_has_dest $end
$var reg 64 }" fpu0_s1_result [63:0] $end
$var reg 4 ~" fpu0_s1_rob_idx [3:0] $end
$var reg 1 !# fpu0_s1_valid $end
$var reg 6 "# fpu0_s2_dest_phys [5:0] $end
$var reg 1 ## fpu0_s2_has_dest $end
$var reg 64 $# fpu0_s2_result [63:0] $end
$var reg 4 %# fpu0_s2_rob_idx [3:0] $end
$var reg 1 &# fpu0_s2_valid $end
$var reg 6 '# fpu0_s3_dest_phys [5:0] $end
$var reg 1 (# fpu0_s3_has_dest $end
$var reg 64 )# fpu0_s3_result [63:0] $end
$var reg 4 *# fpu0_s3_rob_idx [3:0] $end
$var reg 1 +# fpu0_s3_valid $end
$var reg 64 ,# fpu1_pipe_a [63:0] $end
$var reg 64 -# fpu1_pipe_b [63:0] $end
$var reg 6 .# fpu1_pipe_op [5:0] $end
$var reg 64 /# fpu1_s0_a [63:0] $end
$var reg 64 0# fpu1_s0_b [63:0] $end
$var reg 6 1# fpu1_s0_dest_phys [5:0] $end
$var reg 1 2# fpu1_s0_has_dest $end
$var reg 5 3# fpu1_s0_opcode [4:0] $end
$var reg 4 4# fpu1_s0_rob_idx [3:0] $end
$var reg 1 5# fpu1_s0_valid $end
$var reg 6 6# fpu1_s1_dest_phys [5:0] $end
$var reg 1 7# fpu1_s1_has_dest $end
$var reg 64 8# fpu1_s1_result [63:0] $end
$var reg 4 9# fpu1_s1_rob_idx [3:0] $end
$var reg 1 :# fpu1_s1_valid $end
$var reg 6 ;# fpu1_s2_dest_phys [5:0] $end
$var reg 1 <# fpu1_s2_has_dest $end
$var reg 64 =# fpu1_s2_result [63:0] $end
$var reg 4 ># fpu1_s2_rob_idx [3:0] $end
$var reg 1 ?# fpu1_s2_valid $end
$var reg 6 @# fpu1_s3_dest_phys [5:0] $end
$var reg 1 A# fpu1_s3_has_dest $end
$var reg 64 B# fpu1_s3_result [63:0] $end
$var reg 4 C# fpu1_s3_rob_idx [3:0] $end
$var reg 1 D# fpu1_s3_valid $end
$var reg 1 E# halt_inflight $end
$var reg 1 ! hlt $end
$var reg 64 F# lsu0_s0_addr [63:0] $end
$var reg 64 G# lsu0_s0_base [63:0] $end
$var reg 64 H# lsu0_s0_imm [63:0] $end
$var reg 1 I# lsu0_s0_is_addr $end
$var reg 3 J# lsu0_s0_lsq_idx [2:0] $end
$var reg 4 K# lsu0_s0_rob_idx [3:0] $end
$var reg 1 L# lsu0_s0_valid $end
$var reg 64 M# lsu0_s1_addr [63:0] $end
$var reg 1 N# lsu0_s1_is_addr $end
$var reg 3 O# lsu0_s1_lsq_idx [2:0] $end
$var reg 64 P# lsu0_s1_result [63:0] $end
$var reg 4 Q# lsu0_s1_rob_idx [3:0] $end
$var reg 1 R# lsu0_s1_valid $end
$var reg 64 S# lsu1_s0_addr [63:0] $end
$var reg 64 T# lsu1_s0_base [63:0] $end
$var reg 64 U# lsu1_s0_imm [63:0] $end
$var reg 1 V# lsu1_s0_is_addr $end
$var reg 3 W# lsu1_s0_lsq_idx [2:0] $end
$var reg 4 X# lsu1_s0_rob_idx [3:0] $end
$var reg 1 Y# lsu1_s0_valid $end
$var reg 64 Z# lsu1_s1_addr [63:0] $end
$var reg 1 [# lsu1_s1_is_addr $end
$var reg 3 \# lsu1_s1_lsq_idx [2:0] $end
$var reg 64 ]# lsu1_s1_result [63:0] $end
$var reg 4 ^# lsu1_s1_rob_idx [3:0] $end
$var reg 1 _# lsu1_s1_valid $end
$var reg 1 `# mispredict $end
$var reg 1 a# need_dest_phys $end
$var reg 6 b# new_dest_phys [5:0] $end
$var reg 6 c# old_dest_phys [5:0] $end
$var reg 32 d# slot_inst [31:0] $end
$var reg 12 e# slot_lit12 [11:0] $end
$var reg 64 f# slot_lit_sext [63:0] $end
$var reg 64 g# slot_lit_zext [63:0] $end
$var reg 5 h# slot_opcode [4:0] $end
$var reg 1 i# slot_pred_taken $end
$var reg 64 j# slot_pred_target [63:0] $end
$var reg 5 k# slot_rd [4:0] $end
$var reg 5 l# slot_rs [4:0] $end
$var reg 5 m# slot_rt [4:0] $end
$var reg 6 n# src_tag [5:0] $end
$var reg 6 o# src_tag1 [5:0] $end
$var reg 6 p# src_tag2 [5:0] $end
$var reg 64 q# src_val [63:0] $end
$var reg 64 r# src_val1 [63:0] $end
$var reg 64 s# src_val2 [63:0] $end
$var reg 1 t# src_wait $end
$var reg 1 u# src_wait1 $end
$var reg 1 v# src_wait2 $end
$var integer 32 w# addr_idx [31:0] $end
$var integer 32 x# alu_pick0 [31:0] $end
$var integer 32 y# alu_pick1 [31:0] $end
$var integer 32 z# checkpoint_free_count [31:0] $end
$var integer 32 {# checkpoint_rob_idx [31:0] $end
$var integer 32 |# fetch_bht_idx [31:0] $end
$var integer 32 }# fpu_pick0 [31:0] $end
$var integer 32 ~# fpu_pick1 [31:0] $end
$var integer 32 !$ free_count [31:0] $end
$var integer 32 "$ i [31:0] $end
$var integer 32 #$ k [31:0] $end
$var integer 32 $$ load_best_store [31:0] $end
$var integer 32 %$ ls_pick0 [31:0] $end
$var integer 32 &$ ls_pick1 [31:0] $end
$var integer 32 '$ lsq_idx [31:0] $end
$var integer 32 ($ rob_count [31:0] $end
$var integer 32 )$ rob_head [31:0] $end
$var integer 32 *$ rob_idx [31:0] $end
$var integer 32 +$ rob_tail [31:0] $end
$var integer 32 ,$ rs_idx [31:0] $end
$var integer 32 -$ slot [31:0] $end
$scope function alu_sel_for_opcode $end
$upscope $end
$scope function bht_idx $end
$upscope $end
$scope function fpu_sel_for_opcode $end
$upscope $end
$scope function has_dest_opcode $end
$upscope $end
$scope function is_branch_opcode $end
$upscope $end
$scope function is_fpu_opcode $end
$upscope $end
$scope function is_halt_opcode $end
$upscope $end
$scope function is_load_opcode $end
$upscope $end
$scope function is_store_opcode $end
$upscope $end
$scope function read_inst32 $end
$upscope $end
$scope function read_mem64_direct $end
$upscope $end
$scope function rob_distance $end
$upscope $end
$scope function rob_inc $end
$upscope $end
$scope function rob_younger_than $end
$upscope $end
$scope function signext12 $end
$upscope $end
$scope module alu0 $end
$var wire 64 .$ a [63:0] $end
$var wire 64 /$ b [63:0] $end
$var wire 6 0$ op [5:0] $end
$var wire 1 U a_is_zero $end
$var wire 1 W a_gt_b_signed $end
$var parameter 6 1$ ALU_ADD $end
$var parameter 6 2$ ALU_AND $end
$var parameter 6 3$ ALU_DIV $end
$var parameter 6 4$ ALU_MUL $end
$var parameter 6 5$ ALU_NOT $end
$var parameter 6 6$ ALU_OR $end
$var parameter 6 7$ ALU_PASS_A $end
$var parameter 6 8$ ALU_PASS_B $end
$var parameter 6 9$ ALU_SHL $end
$var parameter 6 :$ ALU_SHR $end
$var parameter 6 ;$ ALU_SUB $end
$var parameter 6 <$ ALU_XOR $end
$var reg 64 =$ result [63:0] $end
$upscope $end
$scope module alu1 $end
$var wire 64 >$ a [63:0] $end
$var wire 64 ?$ b [63:0] $end
$var wire 6 @$ op [5:0] $end
$var wire 1 R a_is_zero $end
$var wire 1 T a_gt_b_signed $end
$var parameter 6 A$ ALU_ADD $end
$var parameter 6 B$ ALU_AND $end
$var parameter 6 C$ ALU_DIV $end
$var parameter 6 D$ ALU_MUL $end
$var parameter 6 E$ ALU_NOT $end
$var parameter 6 F$ ALU_OR $end
$var parameter 6 G$ ALU_PASS_A $end
$var parameter 6 H$ ALU_PASS_B $end
$var parameter 6 I$ ALU_SHL $end
$var parameter 6 J$ ALU_SHR $end
$var parameter 6 K$ ALU_SUB $end
$var parameter 6 L$ ALU_XOR $end
$var reg 64 M$ result [63:0] $end
$upscope $end
$scope module fetch $end
$var wire 1 0 clk $end
$var wire 64 N$ pc_next [63:0] $end
$var wire 1 O$ pc_write $end
$var wire 1 1 reset $end
$var reg 64 P$ pc [63:0] $end
$upscope $end
$scope module fpu $end
$var wire 64 Q$ a [63:0] $end
$var wire 64 R$ b [63:0] $end
$var wire 6 S$ op [5:0] $end
$var parameter 6 T$ ALU_FADD $end
$var parameter 6 U$ ALU_FDIV $end
$var parameter 6 V$ ALU_FMUL $end
$var parameter 6 W$ ALU_FSUB $end
$var parameter 64 X$ QUIET_NAN $end
$var reg 64 Y$ result [63:0] $end
$scope function fp_addsub64 $end
$upscope $end
$scope function fp_div64 $end
$upscope $end
$scope function fp_mul64 $end
$upscope $end
$scope function is_inf64 $end
$upscope $end
$scope function is_nan64 $end
$upscope $end
$scope function is_zero64 $end
$upscope $end
$scope function pack $end
$upscope $end
$scope function shr_sticky56 $end
$upscope $end
$upscope $end
$scope module fpu1 $end
$var wire 64 Z$ a [63:0] $end
$var wire 64 [$ b [63:0] $end
$var wire 6 \$ op [5:0] $end
$var parameter 6 ]$ ALU_FADD $end
$var parameter 6 ^$ ALU_FDIV $end
$var parameter 6 _$ ALU_FMUL $end
$var parameter 6 `$ ALU_FSUB $end
$var parameter 64 a$ QUIET_NAN $end
$var reg 64 b$ result [63:0] $end
$scope function fp_addsub64 $end
$upscope $end
$scope function fp_div64 $end
$upscope $end
$scope function fp_mul64 $end
$upscope $end
$scope function is_inf64 $end
$upscope $end
$scope function is_nan64 $end
$upscope $end
$scope function is_zero64 $end
$upscope $end
$scope function pack $end
$upscope $end
$scope function shr_sticky56 $end
$upscope $end
$upscope $end
$scope module memory $end
$var wire 1 0 clk $end
$var wire 64 c$ data_addr [63:0] $end
$var wire 64 d$ data_write_data [63:0] $end
$var wire 1 e$ data_write_en $end
$var wire 64 f$ inst_addr [63:0] $end
$var wire 32 g$ inst_word [31:0] $end
$var wire 32 h$ inst_idx [31:0] $end
$var wire 64 i$ data_read_data [63:0] $end
$var wire 32 j$ data_idx [31:0] $end
$var parameter 64 k$ MEM_SIZE $end
$upscope $end
$scope module reg_file $end
$var wire 1 0 clk $end
$var wire 5 l$ read_addr_a [4:0] $end
$var wire 5 m$ read_addr_b [4:0] $end
$var wire 5 n$ read_addr_c [4:0] $end
$var wire 64 o$ read_data_a [63:0] $end
$var wire 64 p$ read_data_b [63:0] $end
$var wire 64 q$ read_data_c [63:0] $end
$var wire 1 1 reset $end
$var wire 64 r$ sp_data [63:0] $end
$var wire 5 s$ write_addr [4:0] $end
$var wire 64 t$ write_data [63:0] $end
$var wire 1 u$ write_en $end
$var parameter 64 v$ MEM_SIZE $end
$var integer 32 w$ i [31:0] $end
$upscope $end
$scope task capture_operand $end
$upscope $end
$scope task capture_operand_from_phys $end
$upscope $end
$scope task finish_result $end
$upscope $end
$scope task predict_instruction $end
$upscope $end
$scope task scan_store_forward $end
$upscope $end
$scope task wakeup_tag $end
$upscope $end
$upscope $end
$scope task clear_program_region $end
$var integer 32 x$ j [31:0] $end
$upscope $end
$scope task do_reset $end
$upscope $end
$scope task expect64 $end
$var reg 64 y$ exp [63:0] $end
$var reg 64 z$ got [63:0] $end
$var reg 256 {$ name [255:0] $end
$upscope $end
$scope task expect_true $end
$var reg 1 |$ cond $end
$var reg 256 }$ name [255:0] $end
$upscope $end
$scope task run_until_halt $end
$var integer 32 ~$ max_cycles [31:0] $end
$upscope $end
$scope task write_inst $end
$var reg 64 !% addr [63:0] $end
$var reg 32 "% inst [31:0] $end
$upscope $end
$scope task write_mem64 $end
$var reg 64 #% addr [63:0] $end
$var reg 64 $% data [63:0] $end
$upscope $end
$upscope $end
$enddefinitions $end
$comment Show the parameter values. $end
$dumpall
b10000000000000000000 v$
b10000000000000000000 k$
b111111111111000000000000000000000000000000000000000000000000000 a$
b1101 `$
b1110 _$
b1111 ^$
b1100 ]$
b111111111111000000000000000000000000000000000000000000000000000 X$
b1101 W$
b1110 V$
b1111 U$
b1100 T$
b100 L$
b1001 K$
b110 J$
b111 I$
b1 H$
b0 G$
b11 F$
b101 E$
b1010 D$
b1011 C$
b10 B$
b1000 A$
b100 <$
b1001 ;$
b110 :$
b111 9$
b1 8$
b0 7$
b11 6$
b101 5$
b1010 4$
b1011 3$
b10 2$
b1000 1$
b1100 /"
b10000 ."
b1000000 -"
b10 ,"
b11011 +"
b10101 *"
b11010 )"
b101 ("
b100 '"
b111 &"
b110 %"
b1101 $"
b1111 #"
b1 ""
b11 !"
b10110 ~
b11100 }
b10011 |
b10001 {
b10000 z
b10010 y
b10111 x
b11101 w
b1100 v
b1001 u
b1010 t
b1011 s
b1110 r
b1000 q
b0 p
b11001 o
b10100 n
b11000 m
b10000000000000000000 l
b1000 k
b100000 j
b100000000 i
b100000 h
b100 g
b1001 f
b110 e
b111 d
b1 c
b0 b
b11 a
b101 `
b1010 _
b1101 ^
b1110 ]
b1111 \
b1100 [
b1011 Z
b10 Y
b1000 X
b1111111111111111000 /
b11011 .
b1101 -
b1111 ,
b10011 +
b10000 *
b1100 )
b1010 (
b1011 '
b1000 &
b11001 %
b10100 $
b11000 #
b10000000000000000000 "
$end
#0
$dumpvars
bx $%
bx #%
bx "%
bx !%
bx ~$
bx }$
x|$
bx {$
bx z$
bx y$
b10000010000000 x$
bx w$
0u$
b0 t$
b0 s$
bx r$
bx q$
bx p$
bx o$
b0 n$
b0 m$
b0 l$
b0 j$
bx i$
b0 h$
bx g$
b0 f$
0e$
b0 d$
b0 c$
bx b$
bx \$
bx [$
bx Z$
bx Y$
bx S$
bx R$
bx Q$
b10000000000000 P$
0O$
b0 N$
bx M$
bx @$
bx ?$
bx >$
bx =$
bx 0$
bx /$
bx .$
bx -$
bx ,$
bx +$
bx *$
bx )$
bx ($
bx '$
bx &$
bx %$
bx $$
bx #$
bx "$
bx !$
bx ~#
bx }#
bx |#
bx {#
bx z#
bx y#
bx x#
bx w#
xv#
xu#
xt#
bx s#
bx r#
bx q#
bx p#
bx o#
bx n#
bx m#
bx l#
bx k#
bx j#
xi#
bx h#
bx g#
bx f#
bx e#
bx d#
bx c#
bx b#
xa#
x`#
x_#
bx ^#
bx ]#
bx \#
x[#
bx Z#
xY#
bx X#
bx W#
xV#
bx U#
bx T#
bx S#
xR#
bx Q#
bx P#
bx O#
xN#
bx M#
xL#
bx K#
bx J#
xI#
bx H#
bx G#
bx F#
xE#
xD#
bx C#
bx B#
xA#
bx @#
x?#
bx >#
bx =#
x<#
bx ;#
x:#
bx 9#
bx 8#
x7#
bx 6#
x5#
bx 4#
bx 3#
x2#
bx 1#
bx 0#
bx /#
bx .#
bx -#
bx ,#
x+#
bx *#
bx )#
x(#
bx '#
x&#
bx %#
bx $#
x##
bx "#
x!#
bx ~"
bx }"
x|"
bx {"
xz"
bx y"
bx x"
xw"
bx v"
bx u"
bx t"
bx s"
bx r"
bx q"
bx p"
xo"
xn"
xm"
bx l"
bx k"
xj"
bx i"
xh"
xg"
bx f"
bx e"
bx d"
xc"
bx b"
bx a"
x`"
x_"
bx ^"
bx ]"
bx \"
bx ["
xZ"
bx Y"
bx X"
xW"
bx V"
bx U"
xT"
xS"
bx R"
bx Q"
bx P"
bx O"
bx N"
bx M"
bx L"
xK"
bx J"
bx I"
bx H"
xG"
bx F"
bx E"
xD"
xC"
bx B"
bx A"
bx @"
bx ?"
x>"
bx ="
bx <"
x;"
bx :"
bx 9"
x8"
x7"
bx 6"
bx 5"
bx 4"
bx 3"
bx 2"
bx 1"
bx 0"
xW
bx V
xU
xT
bx S
xR
bx Q
bx P
bx O
bx N
bx M
bx L
bx K
bx J
bx I
bx H
bx G
bx F
bx E
bx D
bx C
bx B
bx A
bx @
bx ?
bx >
bx =
bx <
bx ;
bx :
bx 9
bx 8
bx 7
bx 6
bx 5
b10000000000000000000000000000011 4
b0 3
b0 2
11
00
x!
$end
#5000
b10000000000000000000 J
b10000000000000000000 r$
b0 M
b0 o$
b0 L
b0 p$
b0 K
b0 q$
0!
b11111 w$
b100000000 "$
0_#
0R#
0Y#
0L#
0D#
0+#
0?#
0&#
0:#
0!#
05#
0z"
0g"
0K"
0Z"
0>"
b100000 z#
b100000 !$
b0 {#
0j"
b0 ($
b0 +$
b0 )$
10
#10000
00
#15000
b100000000 "$
b11111 w$
10
#16000
01
#17000
11
b1111000000000000000000000000000 "%
b10000000000000 !%
b10000010000000 x$
1|$
b1110010011001010111001101100101011101000010000001101000011011000111010000100000011011000110111101110111 }$
b0 y$
b0 z$
b111001001100101011100110110010101110100001000000111001000110000 {$
#20000
00
#25000
b11111 w$
b100000000 "$
10
#30000
00
#35000
b100000000 "$
b11111 w$
10
#36000
01
#37000
b10100 ~$
#40000
00
#45000
b10000000000100 P$
b1 ($
b1 +$
b0 *$
b0 ,$
0a#
b10000000000100 j#
0i#
b0 f#
b0 g#
b0 e#
b0 m#
b0 l#
b0 k#
b1111 h#
b1111000000000000000000000000000 d#
b10 -$
0E#
1m"
b10000000000100 l"
b1100 "$
b11111111111111111111111111111111 &$
b11111111111111111111111111111111 %$
b11111111111111111111111111111111 ~#
b11111111111111111111111111111111 }#
b11111111111111111111111111111111 y#
b11111111111111111111111111111111 x#
b0 ]#
b0 P#
b0 p"
0n"
0o"
b11111111111111111111111111111111 $$
b10000000000000 k"
0`#
b1 2
10
#50000
00
#55000
1!
b10000000001100 P$
b10000000001100 l"
b0 r#
b111110 o#
1u#
b0 q#
b111110 n#
1t#
b111111 c#
b11110 !$
b111110 b#
b11 +$
b10 *$
b1 ,$
1a#
b10000000001100 j#
b0 h#
b0 d#
b10 -$
0m"
b1100 "$
b10 2
b10 ($
b1 )$
b10000000000100 k"
10
#60000
00
#65000
b11 2
10
#66000
11
b11000 E
b11 F
b1 G
b10 H
b10000000010000 !%
b1111000000000000000000000000000 "%
b11011 @
b11 A
b10 ?
b10000010000000 x$
b11010000110000101101100011101000010000001101101011101010110110001110100011010010110001101111001011000110110110001100101 }$
#70000
00
#75000
0!
b100000000 "$
b100000 !$
b0 ($
b0 +$
b0 )$
b10000000000000 P$
b11111 w$
10
#80000
00
#85000
b11111 w$
b100000000 "$
10
#86000
01
#87000
b0 2
b1010000 ~$
#90000
00
#95000
b10000000001000 P$
b10 n#
0t#
b10 c#
b11110 !$
b111110 b#
b10 ($
b10 +$
b1 *$
b1 ,$
b10000000001000 j#
b111 f#
b111 g#
b111 e#
b10 k#
b11001 h#
b11001000100000000000000000000111 d#
b10 -$
b10000000001000 l"
b1100 "$
b10000000000000 k"
b1 2
10
#100000
00
#105000
b111 S
b111 M$
b101 V
b101 =$
b1100 .#
b1100 \$
b1100 s"
b1100 S$
b1000 N"
b1000 @$
0T
b111 M"
b111 ?$
1R
b0 L"
b0 >$
b1000 2"
b1000 0$
0W
b101 1"
b101 /$
1U
b0 0"
b0 .$
b10000000010000 P$
b10000000010000 l"
b111101 n#
1t#
b111101 c#
b11100 !$
b111100 b#
b100 ($
b100 +$
b11 *$
b1 ,$
b10000000010000 j#
b10 f#
b10 g#
b10 e#
b0 m#
b0 l#
b11 k#
b11011 h#
b11011000110000000000000000000010 d#
b10 -$
b10000000001000 X"
0W"
b1 Y"
b111110 R"
1S"
0T"
b10000000000100 V"
b0 Q"
b111 P"
b0 O"
b11001 U"
1Z"
b10000000000100 <"
0;"
b0 ="
b111111 6"
17"
08"
b10000000000000 :"
b0 5"
b101 4"
b0 3"
b11001 9"
1>"
b1 y#
b0 x#
b1100 "$
b10 2
b10000000001000 k"
10
#110000
00
#115000
b10000000010100 P$
1m"
b10000000010100 l"
b101 ($
b101 +$
b100 *$
b10 ,$
0a#
b10000000010100 j#
b0 f#
b0 g#
b0 e#
b0 k#
b1111 h#
b1111000000000000000000000000000 d#
b10 -$
b1100 "$
b11111111111111111111111111111111 y#
b11111111111111111111111111111111 x#
0Z"
0>"
b11 2
b111 e"
b10000000001000 d"
0c"
b1 f"
b111110 ^"
1_"
0`"
b10000000000100 b"
b0 ]"
b111 \"
b0 ["
b11001 a"
1g"
b101 I"
b10000000000100 H"
0G"
b0 J"
b111111 B"
1C"
0D"
b10000000000000 F"
b0 A"
b101 @"
b0 ?"
b11001 E"
1K"
b10000000010000 k"
10
#120000
00
#125000
b1100 V
b1100 =$
b111 1"
b111 /$
0U
b101 0"
b101 .$
b10 -$
1E#
1m"
b10000000001100 <"
b10 ="
b111101 6"
b10000000001000 :"
b111 4"
b101 3"
b11000 9"
1>"
b0 x#
b10000 "$
0g"
0K"
b100 ($
b1 )$
b1000 #$
b100 2
b10000000010100 k"
10
#130000
00
#135000
b10 -$
1E#
1m"
b10000 "$
b11111111111111111111111111111111 x#
0>"
b101 2
b1100 I"
b10000000001100 H"
b10 J"
b111101 B"
b10000000001000 F"
b111 @"
b101 ?"
b11000 E"
1K"
b11 ($
b10 )$
10
#140000
00
#145000
b1010 V
b1010 =$
b1001 2"
b1001 0$
b10 1"
b10 /$
1W
b1100 0"
b1100 .$
b10 -$
1E#
1m"
b10000000010000 <"
b11 ="
b111100 6"
b10000000001100 :"
b10 4"
b1100 3"
b11011 9"
1>"
b1 x#
b10000 "$
0K"
b10 ($
b11 )$
b1000 #$
b110 2
10
#150000
00
#155000
b10 -$
1E#
1m"
b10000 "$
b11111111111111111111111111111111 x#
0>"
b111 2
b1010 I"
b10000000010000 H"
b11 J"
b111100 B"
b10000000001100 F"
b10 @"
b1100 ?"
b11011 E"
1K"
10
#160000
00
