sim/regressions.vcd
$date
	Thu Apr 16 12:49:14 2026
$end
$version
	Icarus Verilog
$end
$timescale
	1ps
$end
$scope module tb_regressions $end
$var wire 1 ! hlt $end
$var parameter 64 " MEM_SIZE $end
$var parameter 5 # OP_ADD $end
$var parameter 5 $ OP_ADDI $end
$var parameter 5 % OP_AND $end
$var parameter 5 & OP_BRNZ $end
$var parameter 5 ' OP_MOV_LOAD $end
$var parameter 5 ( OP_OR $end
$var parameter 5 ) OP_PRIV $end
$var parameter 5 * OP_SUB $end
$var parameter 5 + OP_SUBI $end
$var parameter 5 , OP_XOR $end
$var reg 1 - clk $end
$var reg 1 . reset $end
$var integer 32 / cycles [31:0] $end
$var integer 32 0 fails [31:0] $end
$var integer 32 1 i [31:0] $end
$scope function enc_mov_load $end
$var reg 12 2 lit [11:0] $end
$var reg 5 3 rd [4:0] $end
$var reg 5 4 rs [4:0] $end
$upscope $end
$scope function enc_rd_lit $end
$var reg 12 5 lit [11:0] $end
$var reg 5 6 opcode [4:0] $end
$var reg 5 7 rd [4:0] $end
$upscope $end
$scope function enc_rr $end
$var reg 5 8 opcode [4:0] $end
$var reg 5 9 rd [4:0] $end
$var reg 5 : rs [4:0] $end
$upscope $end
$scope function enc_rrr $end
$var reg 5 ; opcode [4:0] $end
$var reg 5 < rd [4:0] $end
$var reg 5 = rs [4:0] $end
$var reg 5 > rt [4:0] $end
$upscope $end
$scope module dut $end
$var wire 1 - clk $end
$var wire 1 . reset $end
$var wire 64 ? unused_sp_data [63:0] $end
$var wire 64 @ unused_read_c [63:0] $end
$var wire 64 A unused_read_b [63:0] $end
$var wire 64 B unused_read_a [63:0] $end
$var wire 32 C unused_inst_word [31:0] $end
$var wire 64 D unused_data_word [63:0] $end
$var wire 64 E fpu1_pipe_result [63:0] $end
$var wire 64 F fpu0_pipe_result [63:0] $end
$var wire 1 G alu1_pipe_zero $end
$var wire 64 H alu1_pipe_result [63:0] $end
$var wire 1 I alu1_pipe_gt $end
$var wire 1 J alu0_pipe_zero $end
$var wire 64 K alu0_pipe_result [63:0] $end
$var wire 1 L alu0_pipe_gt $end
$var parameter 6 M ALU_ADD $end
$var parameter 6 N ALU_AND $end
$var parameter 6 O ALU_DIV $end
$var parameter 6 P ALU_FADD $end
$var parameter 6 Q ALU_FDIV $end
$var parameter 6 R ALU_FMUL $end
$var parameter 6 S ALU_FSUB $end
$var parameter 6 T ALU_MUL $end
$var parameter 6 U ALU_NOT $end
$var parameter 6 V ALU_OR $end
$var parameter 6 W ALU_PASS_A $end
$var parameter 6 X ALU_PASS_B $end
$var parameter 6 Y ALU_SHL $end
$var parameter 6 Z ALU_SHR $end
$var parameter 6 [ ALU_SUB $end
$var parameter 6 \ ALU_XOR $end
$var parameter 32 ] ARCH_REGS $end
$var parameter 32 ^ BHT_SIZE $end
$var parameter 33 _ FREE_COUNT_MAX $end
$var parameter 32 ` LSQ_SIZE $end
$var parameter 64 a MEM_SIZE $end
$var parameter 5 b OP_ADD $end
$var parameter 5 c OP_ADDF $end
$var parameter 5 d OP_ADDI $end
$var parameter 5 e OP_AND $end
$var parameter 5 f OP_BR $end
$var parameter 5 g OP_BRGT $end
$var parameter 5 h OP_BRNZ $end
$var parameter 5 i OP_BRR_LIT $end
$var parameter 5 j OP_BRR_REG $end
$var parameter 5 k OP_CALL $end
$var parameter 5 l OP_DIV $end
$var parameter 5 m OP_DIVF $end
$var parameter 5 n OP_MOV_LIT $end
$var parameter 5 o OP_MOV_LOAD $end
$var parameter 5 p OP_MOV_REG $end
$var parameter 5 q OP_MOV_STORE $end
$var parameter 5 r OP_MUL $end
$var parameter 5 s OP_MULF $end
$var parameter 5 t OP_NOT $end
$var parameter 5 u OP_OR $end
$var parameter 5 v OP_PRIV $end
$var parameter 5 w OP_RETURN $end
$var parameter 5 x OP_SHFTL $end
$var parameter 5 y OP_SHFTLI $end
$var parameter 5 z OP_SHFTR $end
$var parameter 5 { OP_SHFTRI $end
$var parameter 5 | OP_SUB $end
$var parameter 5 } OP_SUBF $end
$var parameter 5 ~ OP_SUBI $end
$var parameter 5 !" OP_XOR $end
$var parameter 32 "" PHYS_REGS $end
$var parameter 32 #" ROB_SIZE $end
$var parameter 32 $" RS_SIZE $end
$var reg 64 %" alu0_pipe_a [63:0] $end
$var reg 64 &" alu0_pipe_b [63:0] $end
$var reg 6 '" alu0_pipe_op [5:0] $end
$var reg 64 (" alu0_s0_a [63:0] $end
$var reg 64 )" alu0_s0_b [63:0] $end
$var reg 64 *" alu0_s0_c [63:0] $end
$var reg 6 +" alu0_s0_dest_phys [5:0] $end
$var reg 1 ," alu0_s0_has_dest $end
$var reg 1 -" alu0_s0_is_branch $end
$var reg 5 ." alu0_s0_opcode [4:0] $end
$var reg 64 /" alu0_s0_pc [63:0] $end
$var reg 1 0" alu0_s0_pred_taken $end
$var reg 64 1" alu0_s0_pred_target [63:0] $end
$var reg 4 2" alu0_s0_rob_idx [3:0] $end
$var reg 1 3" alu0_s0_valid $end
$var reg 64 4" alu0_s1_a [63:0] $end
$var reg 64 5" alu0_s1_b [63:0] $end
$var reg 64 6" alu0_s1_c [63:0] $end
$var reg 6 7" alu0_s1_dest_phys [5:0] $end
$var reg 1 8" alu0_s1_has_dest $end
$var reg 1 9" alu0_s1_is_branch $end
$var reg 5 :" alu0_s1_opcode [4:0] $end
$var reg 64 ;" alu0_s1_pc [63:0] $end
$var reg 1 <" alu0_s1_pred_taken $end
$var reg 64 =" alu0_s1_pred_target [63:0] $end
$var reg 64 >" alu0_s1_result [63:0] $end
$var reg 4 ?" alu0_s1_rob_idx [3:0] $end
$var reg 1 @" alu0_s1_valid $end
$var reg 64 A" alu1_pipe_a [63:0] $end
$var reg 64 B" alu1_pipe_b [63:0] $end
$var reg 6 C" alu1_pipe_op [5:0] $end
$var reg 64 D" alu1_s0_a [63:0] $end
$var reg 64 E" alu1_s0_b [63:0] $end
$var reg 64 F" alu1_s0_c [63:0] $end
$var reg 6 G" alu1_s0_dest_phys [5:0] $end
$var reg 1 H" alu1_s0_has_dest $end
$var reg 1 I" alu1_s0_is_branch $end
$var reg 5 J" alu1_s0_opcode [4:0] $end
$var reg 64 K" alu1_s0_pc [63:0] $end
$var reg 1 L" alu1_s0_pred_taken $end
$var reg 64 M" alu1_s0_pred_target [63:0] $end
$var reg 4 N" alu1_s0_rob_idx [3:0] $end
$var reg 1 O" alu1_s0_valid $end
$var reg 64 P" alu1_s1_a [63:0] $end
$var reg 64 Q" alu1_s1_b [63:0] $end
$var reg 64 R" alu1_s1_c [63:0] $end
$var reg 6 S" alu1_s1_dest_phys [5:0] $end
$var reg 1 T" alu1_s1_has_dest $end
$var reg 1 U" alu1_s1_is_branch $end
$var reg 5 V" alu1_s1_opcode [4:0] $end
$var reg 64 W" alu1_s1_pc [63:0] $end
$var reg 1 X" alu1_s1_pred_taken $end
$var reg 64 Y" alu1_s1_pred_target [63:0] $end
$var reg 64 Z" alu1_s1_result [63:0] $end
$var reg 4 [" alu1_s1_rob_idx [3:0] $end
$var reg 1 \" alu1_s1_valid $end
$var reg 1 ]" branch_taken $end
$var reg 64 ^" branch_target [63:0] $end
$var reg 1 _" checkpoint_valid $end
$var reg 64 `" correct_pc [63:0] $end
$var reg 64 a" fetch_pc_next [63:0] $end
$var reg 1 b" fetch_stop $end
$var reg 1 c" forward_blocked $end
$var reg 1 d" forward_found $end
$var reg 64 e" forwarded_value [63:0] $end
$var reg 64 f" fpu0_pipe_a [63:0] $end
$var reg 64 g" fpu0_pipe_b [63:0] $end
$var reg 6 h" fpu0_pipe_op [5:0] $end
$var reg 64 i" fpu0_s0_a [63:0] $end
$var reg 64 j" fpu0_s0_b [63:0] $end
$var reg 6 k" fpu0_s0_dest_phys [5:0] $end
$var reg 1 l" fpu0_s0_has_dest $end
$var reg 5 m" fpu0_s0_opcode [4:0] $end
$var reg 4 n" fpu0_s0_rob_idx [3:0] $end
$var reg 1 o" fpu0_s0_valid $end
$var reg 6 p" fpu0_s1_dest_phys [5:0] $end
$var reg 1 q" fpu0_s1_has_dest $end
$var reg 64 r" fpu0_s1_result [63:0] $end
$var reg 4 s" fpu0_s1_rob_idx [3:0] $end
$var reg 1 t" fpu0_s1_valid $end
$var reg 6 u" fpu0_s2_dest_phys [5:0] $end
$var reg 1 v" fpu0_s2_has_dest $end
$var reg 64 w" fpu0_s2_result [63:0] $end
$var reg 4 x" fpu0_s2_rob_idx [3:0] $end
$var reg 1 y" fpu0_s2_valid $end
$var reg 6 z" fpu0_s3_dest_phys [5:0] $end
$var reg 1 {" fpu0_s3_has_dest $end
$var reg 64 |" fpu0_s3_result [63:0] $end
$var reg 4 }" fpu0_s3_rob_idx [3:0] $end
$var reg 1 ~" fpu0_s3_valid $end
$var reg 64 !# fpu1_pipe_a [63:0] $end
$var reg 64 "# fpu1_pipe_b [63:0] $end
$var reg 6 ## fpu1_pipe_op [5:0] $end
$var reg 64 $# fpu1_s0_a [63:0] $end
$var reg 64 %# fpu1_s0_b [63:0] $end
$var reg 6 &# fpu1_s0_dest_phys [5:0] $end
$var reg 1 '# fpu1_s0_has_dest $end
$var reg 5 (# fpu1_s0_opcode [4:0] $end
$var reg 4 )# fpu1_s0_rob_idx [3:0] $end
$var reg 1 *# fpu1_s0_valid $end
$var reg 6 +# fpu1_s1_dest_phys [5:0] $end
$var reg 1 ,# fpu1_s1_has_dest $end
$var reg 64 -# fpu1_s1_result [63:0] $end
$var reg 4 .# fpu1_s1_rob_idx [3:0] $end
$var reg 1 /# fpu1_s1_valid $end
$var reg 6 0# fpu1_s2_dest_phys [5:0] $end
$var reg 1 1# fpu1_s2_has_dest $end
$var reg 64 2# fpu1_s2_result [63:0] $end
$var reg 4 3# fpu1_s2_rob_idx [3:0] $end
$var reg 1 4# fpu1_s2_valid $end
$var reg 6 5# fpu1_s3_dest_phys [5:0] $end
$var reg 1 6# fpu1_s3_has_dest $end
$var reg 64 7# fpu1_s3_result [63:0] $end
$var reg 4 8# fpu1_s3_rob_idx [3:0] $end
$var reg 1 9# fpu1_s3_valid $end
$var reg 1 :# halt_inflight $end
$var reg 1 ! hlt $end
$var reg 64 ;# lsu0_s0_addr [63:0] $end
$var reg 64 <# lsu0_s0_base [63:0] $end
$var reg 64 =# lsu0_s0_imm [63:0] $end
$var reg 1 ># lsu0_s0_is_addr $end
$var reg 3 ?# lsu0_s0_lsq_idx [2:0] $end
$var reg 4 @# lsu0_s0_rob_idx [3:0] $end
$var reg 1 A# lsu0_s0_valid $end
$var reg 64 B# lsu0_s1_addr [63:0] $end
$var reg 1 C# lsu0_s1_is_addr $end
$var reg 3 D# lsu0_s1_lsq_idx [2:0] $end
$var reg 64 E# lsu0_s1_result [63:0] $end
$var reg 4 F# lsu0_s1_rob_idx [3:0] $end
$var reg 1 G# lsu0_s1_valid $end
$var reg 64 H# lsu1_s0_addr [63:0] $end
$var reg 64 I# lsu1_s0_base [63:0] $end
$var reg 64 J# lsu1_s0_imm [63:0] $end
$var reg 1 K# lsu1_s0_is_addr $end
$var reg 3 L# lsu1_s0_lsq_idx [2:0] $end
$var reg 4 M# lsu1_s0_rob_idx [3:0] $end
$var reg 1 N# lsu1_s0_valid $end
$var reg 64 O# lsu1_s1_addr [63:0] $end
$var reg 1 P# lsu1_s1_is_addr $end
$var reg 3 Q# lsu1_s1_lsq_idx [2:0] $end
$var reg 64 R# lsu1_s1_result [63:0] $end
$var reg 4 S# lsu1_s1_rob_idx [3:0] $end
$var reg 1 T# lsu1_s1_valid $end
$var reg 1 U# mispredict $end
$var reg 1 V# need_dest_phys $end
$var reg 6 W# new_dest_phys [5:0] $end
$var reg 6 X# old_dest_phys [5:0] $end
$var reg 32 Y# slot_inst [31:0] $end
$var reg 12 Z# slot_lit12 [11:0] $end
$var reg 64 [# slot_lit_sext [63:0] $end
$var reg 64 \# slot_lit_zext [63:0] $end
$var reg 5 ]# slot_opcode [4:0] $end
$var reg 1 ^# slot_pred_taken $end
$var reg 64 _# slot_pred_target [63:0] $end
$var reg 5 `# slot_rd [4:0] $end
$var reg 5 a# slot_rs [4:0] $end
$var reg 5 b# slot_rt [4:0] $end
$var reg 6 c# src_tag [5:0] $end
$var reg 6 d# src_tag1 [5:0] $end
$var reg 6 e# src_tag2 [5:0] $end
$var reg 64 f# src_val [63:0] $end
$var reg 64 g# src_val1 [63:0] $end
$var reg 64 h# src_val2 [63:0] $end
$var reg 1 i# src_wait $end
$var reg 1 j# src_wait1 $end
$var reg 1 k# src_wait2 $end
$var integer 32 l# addr_idx [31:0] $end
$var integer 32 m# alu_pick0 [31:0] $end
$var integer 32 n# alu_pick1 [31:0] $end
$var integer 32 o# checkpoint_free_count [31:0] $end
$var integer 32 p# checkpoint_rob_idx [31:0] $end
$var integer 32 q# fetch_bht_idx [31:0] $end
$var integer 32 r# fpu_pick0 [31:0] $end
$var integer 32 s# fpu_pick1 [31:0] $end
$var integer 32 t# free_count [31:0] $end
$var integer 32 u# i [31:0] $end
$var integer 32 v# k [31:0] $end
$var integer 32 w# load_best_store [31:0] $end
$var integer 32 x# ls_pick0 [31:0] $end
$var integer 32 y# ls_pick1 [31:0] $end
$var integer 32 z# lsq_idx [31:0] $end
$var integer 32 {# rob_count [31:0] $end
$var integer 32 |# rob_head [31:0] $end
$var integer 32 }# rob_idx [31:0] $end
$var integer 32 ~# rob_tail [31:0] $end
$var integer 32 !$ rs_idx [31:0] $end
$var integer 32 "$ slot [31:0] $end
$scope function alu_sel_for_opcode $end
$upscope $end
$scope function bht_idx $end
$upscope $end
$scope function fpu_sel_for_opcode $end
$upscope $end
$scope function has_dest_opcode $end
$upscope $end
$scope function is_branch_opcode $end
$upscope $end
$scope function is_fpu_opcode $end
$upscope $end
$scope function is_halt_opcode $end
$upscope $end
$scope function is_load_opcode $end
$upscope $end
$scope function is_store_opcode $end
$upscope $end
$scope function read_inst32 $end
$upscope $end
$scope function read_mem64_direct $end
$upscope $end
$scope function rob_distance $end
$upscope $end
$scope function rob_inc $end
$upscope $end
$scope function rob_younger_than $end
$upscope $end
$scope function signext12 $end
$upscope $end
$scope module alu0 $end
$var wire 64 #$ a [63:0] $end
$var wire 64 $$ b [63:0] $end
$var wire 6 %$ op [5:0] $end
$var wire 1 J a_is_zero $end
$var wire 1 L a_gt_b_signed $end
$var parameter 6 &$ ALU_ADD $end
$var parameter 6 '$ ALU_AND $end
$var parameter 6 ($ ALU_DIV $end
$var parameter 6 )$ ALU_MUL $end
$var parameter 6 *$ ALU_NOT $end
$var parameter 6 +$ ALU_OR $end
$var parameter 6 ,$ ALU_PASS_A $end
$var parameter 6 -$ ALU_PASS_B $end
$var parameter 6 .$ ALU_SHL $end
$var parameter 6 /$ ALU_SHR $end
$var parameter 6 0$ ALU_SUB $end
$var parameter 6 1$ ALU_XOR $end
$var reg 64 2$ result [63:0] $end
$upscope $end
$scope module alu1 $end
$var wire 64 3$ a [63:0] $end
$var wire 64 4$ b [63:0] $end
$var wire 6 5$ op [5:0] $end
$var wire 1 G a_is_zero $end
$var wire 1 I a_gt_b_signed $end
$var parameter 6 6$ ALU_ADD $end
$var parameter 6 7$ ALU_AND $end
$var parameter 6 8$ ALU_DIV $end
$var parameter 6 9$ ALU_MUL $end
$var parameter 6 :$ ALU_NOT $end
$var parameter 6 ;$ ALU_OR $end
$var parameter 6 <$ ALU_PASS_A $end
$var parameter 6 =$ ALU_PASS_B $end
$var parameter 6 >$ ALU_SHL $end
$var parameter 6 ?$ ALU_SHR $end
$var parameter 6 @$ ALU_SUB $end
$var parameter 6 A$ ALU_XOR $end
$var reg 64 B$ result [63:0] $end
$upscope $end
$scope module fetch $end
$var wire 1 - clk $end
$var wire 64 C$ pc_next [63:0] $end
$var wire 1 D$ pc_write $end
$var wire 1 . reset $end
$var reg 64 E$ pc [63:0] $end
$upscope $end
$scope module fpu $end
$var wire 64 F$ a [63:0] $end
$var wire 64 G$ b [63:0] $end
$var wire 6 H$ op [5:0] $end
$var parameter 6 I$ ALU_FADD $end
$var parameter 6 J$ ALU_FDIV $end
$var parameter 6 K$ ALU_FMUL $end
$var parameter 6 L$ ALU_FSUB $end
$var parameter 64 M$ QUIET_NAN $end
$var reg 64 N$ result [63:0] $end
$scope function fp_addsub64 $end
$upscope $end
$scope function fp_div64 $end
$upscope $end
$scope function fp_mul64 $end
$upscope $end
$scope function is_inf64 $end
$upscope $end
$scope function is_nan64 $end
$upscope $end
$scope function is_zero64 $end
$upscope $end
$scope function pack $end
$upscope $end
$scope function shr_sticky56 $end
$upscope $end
$upscope $end
$scope module fpu1 $end
$var wire 64 O$ a [63:0] $end
$var wire 64 P$ b [63:0] $end
$var wire 6 Q$ op [5:0] $end
$var parameter 6 R$ ALU_FADD $end
$var parameter 6 S$ ALU_FDIV $end
$var parameter 6 T$ ALU_FMUL $end
$var parameter 6 U$ ALU_FSUB $end
$var parameter 64 V$ QUIET_NAN $end
$var reg 64 W$ result [63:0] $end
$scope function fp_addsub64 $end
$upscope $end
$scope function fp_div64 $end
$upscope $end
$scope function fp_mul64 $end
$upscope $end
$scope function is_inf64 $end
$upscope $end
$scope function is_nan64 $end
$upscope $end
$scope function is_zero64 $end
$upscope $end
$scope function pack $end
$upscope $end
$scope function shr_sticky56 $end
$upscope $end
$upscope $end
$scope module memory $end
$var wire 1 - clk $end
$var wire 64 X$ data_addr [63:0] $end
$var wire 64 Y$ data_write_data [63:0] $end
$var wire 1 Z$ data_write_en $end
$var wire 64 [$ inst_addr [63:0] $end
$var wire 32 \$ inst_word [31:0] $end
$var wire 32 ]$ inst_idx [31:0] $end
$var wire 64 ^$ data_read_data [63:0] $end
$var wire 32 _$ data_idx [31:0] $end
$var parameter 64 `$ MEM_SIZE $end
$upscope $end
$scope module reg_file $end
$var wire 1 - clk $end
$var wire 5 a$ read_addr_a [4:0] $end
$var wire 5 b$ read_addr_b [4:0] $end
$var wire 5 c$ read_addr_c [4:0] $end
$var wire 64 d$ read_data_a [63:0] $end
$var wire 64 e$ read_data_b [63:0] $end
$var wire 64 f$ read_data_c [63:0] $end
$var wire 1 . reset $end
$var wire 64 g$ sp_data [63:0] $end
$var wire 5 h$ write_addr [4:0] $end
$var wire 64 i$ write_data [63:0] $end
$var wire 1 j$ write_en $end
$var parameter 64 k$ MEM_SIZE $end
$var integer 32 l$ i [31:0] $end
$upscope $end
$scope task capture_operand $end
$upscope $end
$scope task capture_operand_from_phys $end
$upscope $end
$scope task finish_result $end
$upscope $end
$scope task predict_instruction $end
$upscope $end
$scope task scan_store_forward $end
$upscope $end
$scope task wakeup_tag $end
$upscope $end
$upscope $end
$scope task clear_program $end
$var integer 32 m$ j [31:0] $end
$upscope $end
$scope task do_reset $end
$upscope $end
$scope task expect64 $end
$var reg 64 n$ exp [63:0] $end
$var reg 64 o$ got [63:0] $end
$var reg 256 p$ name [255:0] $end
$upscope $end
$scope task expect_true $end
$var reg 1 q$ cond $end
$var reg 256 r$ name [255:0] $end
$upscope $end
$scope task run_until_halt $end
$var integer 32 s$ max_cycles [31:0] $end
$upscope $end
$scope task write_inst $end
$var reg 64 t$ addr [63:0] $end
$var reg 32 u$ inst [31:0] $end
$upscope $end
$scope task write_mem64 $end
$var reg 64 v$ addr [63:0] $end
$var reg 64 w$ data [63:0] $end
$upscope $end
$upscope $end
$enddefinitions $end
$comment Show the parameter values. $end
$dumpall
b10000000000000000000 k$
b10000000000000000000 `$
b111111111111000000000000000000000000000000000000000000000000000 V$
b1101 U$
b1110 T$
b1111 S$
b1100 R$
b111111111111000000000000000000000000000000000000000000000000000 M$
b1101 L$
b1110 K$
b1111 J$
b1100 I$
b100 A$
b1001 @$
b110 ?$
b111 >$
b1 =$
b0 <$
b11 ;$
b101 :$
b1010 9$
b1011 8$
b10 7$
b1000 6$
b100 1$
b1001 0$
b110 /$
b111 .$
b1 -$
b0 ,$
b11 +$
b101 *$
b1010 )$
b1011 ($
b10 '$
b1000 &$
b1100 $"
b10000 #"
b1000000 ""
b10 !"
b11011 ~
b10101 }
b11010 |
b101 {
b100 z
b111 y
b110 x
b1101 w
b1111 v
b1 u
b11 t
b10110 s
b11100 r
b10011 q
b10001 p
b10000 o
b10010 n
b10111 m
b11101 l
b1100 k
b1001 j
b1010 i
b1011 h
b1110 g
b1000 f
b0 e
b11001 d
b10100 c
b11000 b
b10000000000000000000 a
b1000 `
b100000 _
b100000000 ^
b100000 ]
b100 \
b1001 [
b110 Z
b111 Y
b1 X
b0 W
b11 V
b101 U
b1010 T
b1101 S
b1110 R
b1111 Q
b1100 P
b1011 O
b10 N
b1000 M
b10 ,
b11011 +
b11010 *
b1111 )
b1 (
b10000 '
b1011 &
b0 %
b11001 $
b11000 #
b10000000000000000000 "
$end
#0
$dumpvars
b1100 w$
b101011000 v$
b1111000000000000000000000000000 u$
b10000001100000 t$
bx s$
bx r$
xq$
bx p$
bx o$
bx n$
b10000100000000 m$
bx l$
0j$
b0 i$
b0 h$
bx g$
bx f$
bx e$
bx d$
b0 c$
b0 b$
b0 a$
b0 _$
bx ^$
b0 ]$
bx \$
b0 [$
0Z$
b0 Y$
b0 X$
bx W$
bx Q$
bx P$
bx O$
bx N$
bx H$
bx G$
bx F$
b10000000000000 E$
0D$
b0 C$
bx B$
bx 5$
bx 4$
bx 3$
bx 2$
bx %$
bx $$
bx #$
bx "$
bx !$
bx ~#
bx }#
bx |#
bx {#
bx z#
bx y#
bx x#
bx w#
bx v#
bx u#
bx t#
bx s#
bx r#
bx q#
bx p#
bx o#
bx n#
bx m#
bx l#
xk#
xj#
xi#
bx h#
bx g#
bx f#
bx e#
bx d#
bx c#
bx b#
bx a#
bx `#
bx _#
x^#
bx ]#
bx \#
bx [#
bx Z#
bx Y#
bx X#
bx W#
xV#
xU#
xT#
bx S#
bx R#
bx Q#
xP#
bx O#
xN#
bx M#
bx L#
xK#
bx J#
bx I#
bx H#
xG#
bx F#
bx E#
bx D#
xC#
bx B#
xA#
bx @#
bx ?#
x>#
bx =#
bx <#
bx ;#
x:#
x9#
bx 8#
bx 7#
x6#
bx 5#
x4#
bx 3#
bx 2#
x1#
bx 0#
x/#
bx .#
bx -#
x,#
bx +#
x*#
bx )#
bx (#
x'#
bx &#
bx %#
bx $#
bx ##
bx "#
bx !#
x~"
bx }"
bx |"
x{"
bx z"
xy"
bx x"
bx w"
xv"
bx u"
xt"
bx s"
bx r"
xq"
bx p"
xo"
bx n"
bx m"
xl"
bx k"
bx j"
bx i"
bx h"
bx g"
bx f"
bx e"
xd"
xc"
xb"
bx a"
bx `"
x_"
bx ^"
x]"
x\"
bx ["
bx Z"
bx Y"
xX"
bx W"
bx V"
xU"
xT"
bx S"
bx R"
bx Q"
bx P"
xO"
bx N"
bx M"
xL"
bx K"
bx J"
xI"
xH"
bx G"
bx F"
bx E"
bx D"
bx C"
bx B"
bx A"
x@"
bx ?"
bx >"
bx ="
x<"
bx ;"
bx :"
x9"
x8"
bx 7"
bx 6"
bx 5"
bx 4"
x3"
bx 2"
bx 1"
x0"
bx /"
bx ."
x-"
x,"
bx +"
bx *"
bx )"
bx ("
bx '"
bx &"
bx %"
xL
bx K
xJ
xI
bx H
xG
bx F
bx E
bx D
bx C
bx B
bx A
bx @
bx ?
b11101 >
b11100 =
b11011 <
b11010 ;
bx :
bx 9
bx 8
bx 7
bx 6
bx 5
b0 4
b11010 3
b1011000 2
b1100 1
b0 0
b0 /
1.
0-
x!
$end
#5000
b10000000000000000000 ?
b10000000000000000000 g$
b0 B
b0 d$
b0 A
b0 e$
b0 @
b0 f$
0!
b11111 l$
b100000000 u#
0T#
0G#
0N#
0A#
09#
0~"
04#
0y"
0/#
0t"
0*#
0o"
0\"
0@"
0O"
03"
b100000 o#
b100000 t#
b0 p#
0_"
b0 {#
b0 ~#
b0 |#
1-
#10000
0-
#15000
b100000000 u#
b11111 l$
1-
#16000
0.
#17000
b11001000 s$
b100000000 B
b100000000 d$
b100000000 A
b100000000 e$
b100000000 @
b100000000 f$
#20000
0-
#25000
b10000000001000 E$
b10001 g#
b11101 d#
0j#
b0 !$
b1011 f#
b11100 c#
0i#
b101 X#
b11110 t#
b111110 W#
b10 {#
b10 ~#
b1 }#
b0 z#
1V#
b10000000001000 _#
0^#
b0 [#
b0 \#
b0 Z#
b11101 b#
b11100 a#
b101 `#
b11000 ]#
b11000001011110011101000000000000 Y#
b10 "$
0:#
0b"
b10000000001000 a"
b1100 u#
b11111111111111111111111111111111 y#
b11111111111111111111111111111111 x#
b11111111111111111111111111111111 s#
b11111111111111111111111111111111 r#
b11111111111111111111111111111111 n#
b11111111111111111111111111111111 m#
b0 R#
b0 E#
b0 e"
0c"
0d"
b11111111111111111111111111111111 w#
b10000000000000 `"
0U#
b1 /
1-
#30000
0-
#35000
b11100 K
b11100 2$
b1100 ##
b1100 Q$
b1100 h"
b1100 H$
b0 C"
b0 5$
b1000 '"
b1000 %$
0L
b10001 &"
b10001 $$
0J
b1011 %"
b1011 #$
b10000000010000 E$
b0 !$
b10000000010000 a"
b1011 f#
b11100 c#
b111 X#
b11100 t#
b111100 W#
b100 {#
b100 ~#
b11 }#
b1 z#
b10000000010000 _#
b0 [#
b0 \#
b0 Z#
b11101 b#
b11100 a#
b111 `#
b11010 ]#
b11010001111110011101000000000000 Y#
b10 "$
b0 ;#
b0 =#
b100000000 <#
1>#
b0 @#
b0 ?#
1A#
b10000000001000 1"
00"
b1 2"
b111110 +"
1,"
0-"
b10000000000100 /"
b0 *"
b10001 )"
b1011 ("
b11000 ."
13"
b0 x#
b0 m#
b1100 u#
b10 /
b10000000001000 `"
1-
#40000
0-
#45000
b1111111111111111111111111111111111111111111111111111111111111010 K
b1111111111111111111111111111111111111111111111111111111111111010 2$
b1001 '"
b1001 %$
b10000000011000 E$
b0 !$
b10000000011000 a"
b1011 f#
b11100 c#
b1001 X#
b11010 t#
b111010 W#
b110 {#
b110 ~#
b101 }#
b10 z#
b10000000011000 _#
b0 [#
b0 \#
b0 Z#
b11101 b#
b11100 a#
b1001 `#
b10 ]#
b10010011110011101000000000000 Y#
b10 "$
b1000 =#
b10 @#
b1 ?#
b10000000010000 1"
b11 2"
b111100 +"
b10000000001100 /"
b11010 ."
b1100 u#
b1 x#
b0 m#
1A#
13"
b11 /
b100000000 B#
b0 F#
b0 D#
1C#
1G#
b11100 >"
b10000000001000 ="
0<"
b1 ?"
b111110 7"
18"
09"
b10000000000100 ;"
b0 6"
b10001 5"
b1011 4"
b11000 :"
1@"
b10000000010000 `"
1-
#50000
0-
#55000
b11010 K
b11010 2$
b100 '"
b100 %$
b10000000100000 E$
b0 !$
b10000000100000 a"
b1011 f#
b11100 c#
b1011 X#
b11000 t#
b111000 W#
b1000 {#
b1000 ~#
b111 }#
b11 z#
b10000000100000 _#
b0 [#
b0 \#
b0 Z#
b11101 b#
b11100 a#
b1011 `#
b1 ]#
b1010111110011101000000000000 Y#
b10 "$
b0 H#
b10000 J#
b100000000 I#
1K#
b100 M#
b10 L#
1N#
b100000000 ;#
b0 =#
b0 <#
0>#
b0 @#
b0 ?#
b10000000011000 1"
b101 2"
b111010 +"
b10000000010100 /"
b10 ."
b10 y#
b1100 u#
b0 x#
b0 m#
1A#
13"
b100001000 B#
b10 F#
b1 D#
b1111111111111111111111111111111111111111111111111111111111111010 >"
b10000000010000 ="
b11 ?"
b111100 7"
b10000000001100 ;"
b11010 :"
b1000 v#
b100 /
b10000000011000 `"
1-
#60000
0-
#65000
b11011 K
b11011 2$
b11 '"
b11 %$
b10000000101000 E$
b0 !$
b10000000101000 a"
b1011 f#
b11100 c#
b1101 X#
b10110 t#
b110110 W#
b1010 {#
b1010 ~#
b1001 }#
b100 z#
b10000000101000 _#
b0 [#
b0 \#
b0 Z#
b11101 b#
b11100 a#
b1101 `#
b0 ]#
b11011110011101000000000000 Y#
b10 "$
b11000 J#
b110 M#
b11 L#
b100001000 ;#
b10 @#
b1 ?#
b10000000100000 1"
b111 2"
b111000 +"
b10000000011100 /"
b1 ."
b1100 u#
b11 y#
b1 x#
b0 m#
1N#
1A#
13"
b100010000 O#
b100 S#
b10 Q#
1P#
1T#
b1 E#
b100000000 B#
b0 F#
b0 D#
0C#
b11010 >"
b10000000011000 ="
b101 ?"
b111010 7"
b10000000010100 ;"
b10 :"
b1000 v#
b101 /
b10000000100000 `"
1-
#70000
0-
#75000
b1 K
b1 2$
b10 '"
b10 %$
b10000000110000 E$
b0 !$
b10000000110000 a"
b1011 f#
b11100 c#
b1111 X#
b10100 t#
b110100 W#
b1100 ~#
b1011 }#
b0 z#
b10000000110000 _#
b0 [#
b0 \#
b0 Z#
b11101 b#
b11100 a#
b1111 `#
b11000 ]#
b11000011111110011101000000000000 Y#
b10 "$
b100000 J#
b1000 M#
b100 L#
b100010000 ;#
b100 @#
b10 ?#
b10000000101000 1"
b1001 2"
b110110 +"
b10000000100100 /"
b0 ."
b1100 u#
b100 y#
b10 x#
b0 m#
1N#
1A#
13"
b100011000 O#
b110 S#
b11 Q#
b10 E#
b100001000 B#
b10 F#
b1 D#
b11011 >"
b10000000100000 ="
b111 ?"
b111000 7"
b10000000011100 ;"
b1 :"
b1011 {#
b1 |#
b1000 v#
b110 /
b10000000101000 `"
1-
#80000
0-
